cache.vcd
$version Generated by VerilatedVcd $end
$timescale 1ps $end
 $scope module $unit $end
  $var wire 32 5! ZERO [31:0] $end
  $var wire 7 6! OP_R [6:0] $end
  $var wire 7 7! OP_I [6:0] $end
  $var wire 7 8! OP_LOAD [6:0] $end
  $var wire 7 9! OP_STORE [6:0] $end
  $var wire 7 :! OP_BRANCH [6:0] $end
  $var wire 7 ;! OP_JALR [6:0] $end
  $var wire 7 <! OP_JAL [6:0] $end
  $var wire 7 =! OP_LUI [6:0] $end
  $var wire 7 >! OP_AUIPC [6:0] $end
  $var wire 4 ?! ALU_ADD [3:0] $end
  $var wire 4 @! ALU_SUB [3:0] $end
  $var wire 4 A! ALU_AND [3:0] $end
  $var wire 4 B! ALU_OR [3:0] $end
  $var wire 4 C! ALU_XOR [3:0] $end
  $var wire 4 D! ALU_SLT [3:0] $end
  $var wire 4 E! ALU_SLL [3:0] $end
  $var wire 4 F! ALU_SRL [3:0] $end
  $var wire 4 G! ALU_SRA [3:0] $end
  $var wire 4 H! ALU_LUI [3:0] $end
  $var wire 4 I! ALU_BRANCH [3:0] $end
  $var wire 4 J! ALU_NOP [3:0] $end
 $upscope $end
 $scope module cache_tb $end
  $var wire 1 ~ clk $end
  $var wire 1 # reset $end
  $var wire 32 %! AWIDTH [31:0] $end
  $var wire 32 &! DWIDTH [31:0] $end
  $var wire 32 '! NUM_SETS [31:0] $end
  $var wire 32 (! OFFSET_BITS [31:0] $end
  $var wire 32 )! INDEX_BITS [31:0] $end
  $var wire 32 *! TAG_BITS [31:0] $end
  $var wire 14 0 address [13:0] $end
  $var wire 32 !! store_data [31:0] $end
  $var wire 7 "! opcode_i [6:0] $end
  $var wire 3 #! funct3_i [2:0] $end
  $var wire 32 $! data_out [31:0] $end
  $var wire 1 8 stall $end
  $var wire 1 9 data_valid $end
  $var wire 22 $ test_addresses[0] [21:0] $end
  $var wire 22 % test_addresses[1] [21:0] $end
  $var wire 22 & test_addresses[2] [21:0] $end
  $var wire 22 ' test_addresses[3] [21:0] $end
  $var wire 22 ( test_addresses[4] [21:0] $end
  $var wire 22 ) test_addresses[5] [21:0] $end
  $var wire 22 * test_addresses[6] [21:0] $end
  $var wire 22 + test_addresses[7] [21:0] $end
  $var wire 22 , test_addresses[8] [21:0] $end
  $var wire 22 - test_addresses[9] [21:0] $end
  $var wire 22 . test_addresses[10] [21:0] $end
  $var wire 32 1 i [31:0] $end
  $scope module cache $end
   $var wire 32 %! AWIDTH [31:0] $end
   $var wire 32 &! DWIDTH [31:0] $end
   $var wire 1 ~ clk $end
   $var wire 1 # reset $end
   $var wire 14 0 address [13:0] $end
   $var wire 32 !! store_data [31:0] $end
   $var wire 7 "! opcode_i [6:0] $end
   $var wire 3 #! funct3_i [2:0] $end
   $var wire 32 $! data_out [31:0] $end
   $var wire 1 8 stall $end
   $var wire 1 9 data_valid $end
   $var wire 32 '! NUM_SETS [31:0] $end
   $var wire 32 (! OFFSET_BITS [31:0] $end
   $var wire 32 )! INDEX_BITS [31:0] $end
   $var wire 32 *! TAG_BITS [31:0] $end
   $var wire 3 2 offset [2:0] $end
   $var wire 1 3 index [0:0] $end
   $var wire 10 4 tag [9:0] $end
   $var wire 14 : memory_address [13:0] $end
   $var wire 14 5 read_address [13:0] $end
   $var wire 14 6 replace_address [13:0] $end
   $var wire 32 +! CACHE [31:0] $end
   $var wire 32 )! MAIN_MEMORY [31:0] $end
   $var wire 1 J curr_state $end
   $var wire 1 ; next_state $end
   $var wire 32 +! READING [31:0] $end
   $var wire 32 )! WRITE_BACK [31:0] $end
   $var wire 1 K curr_state_mem $end
   $var wire 1 < next_state_mem $end
   $var wire 32 )! HIT [31:0] $end
   $var wire 32 +! MISS [31:0] $end
   $var wire 1 = read_en $end
   $var wire 1 > write_en $end
   $var wire 64 ? mem_out [63:0] $end
   $var wire 1 ,! ready $end
   $var wire 1 L write_finished $end
   $var wire 64 M mem_store [63:0] $end
   $var wire 1 O hit $end
   $var wire 1 A idle $end
   $var wire 2 P replace_way [1:0] $end
   $var wire 2 Q hit_way [1:0] $end
   $var wire 2 7 replace_way_state [1:0] $end
   $var wire 1 B replace_en $end
   $var wire 1 C store_en $end
   $var wire 192 R set [191:0] $end
   $scope module cache_data_array $end
    $var wire 32 -! TAG_BITS [31:0] $end
    $var wire 32 .! INDEX_BITS [31:0] $end
    $var wire 32 /! OFFSET_BITS [31:0] $end
    $var wire 32 '! NUM_SETS [31:0] $end
    $var wire 32 0! BLOCK_SIZE [31:0] $end
    $var wire 32 /! WAYS [31:0] $end
    $var wire 32 &! DWIDTH [31:0] $end
    $var wire 1 ~ clk $end
    $var wire 1 3 index_i [0:0] $end
    $var wire 3 1! offset [2:0] $end
    $var wire 2 P replace_way [1:0] $end
    $var wire 2 Q hit_way [1:0] $end
    $var wire 64 ? cache_line_i [63:0] $end
    $var wire 32 !! store_data [31:0] $end
    $var wire 3 #! funct3_i [2:0] $end
    $var wire 1 B replace_en $end
    $var wire 1 C store_en $end
    $var wire 192 R set_o [191:0] $end
    $var wire 384 X data_array [383:0] $end
    $var wire 64 D temp [63:0] $end
   $upscope $end
   $scope module cache_tag_array $end
    $var wire 32 %! AWIDTH [31:0] $end
    $var wire 32 -! TAG_BITS [31:0] $end
    $var wire 32 .! INDEX_BITS [31:0] $end
    $var wire 32 '! NUM_SETS [31:0] $end
    $var wire 32 /! OFFSET_BITS [31:0] $end
    $var wire 1 ~ clk $end
    $var wire 1 A idle $end
    $var wire 10 4 tag_i [9:0] $end
    $var wire 1 3 index_i [0:0] $end
    $var wire 1 B replace_en $end
    $var wire 1 C store_en $end
    $var wire 1 O hit $end
    $var wire 2 Q hit_way_o [1:0] $end
    $var wire 2 P replace_way_o [1:0] $end
    $var wire 2 7 replace_way_state [1:0] $end
    $var wire 14 6 replace_address [13:0] $end
    $var wire 32 /! WAYS [31:0] $end
    $var wire 10 d tag_array[0][0] [9:0] $end
    $var wire 10 e tag_array[0][1] [9:0] $end
    $var wire 10 f tag_array[0][2] [9:0] $end
    $var wire 10 g tag_array[1][0] [9:0] $end
    $var wire 10 h tag_array[1][1] [9:0] $end
    $var wire 10 i tag_array[1][2] [9:0] $end
    $var wire 2 j valid_array[0][0] [1:0] $end
    $var wire 2 k valid_array[0][1] [1:0] $end
    $var wire 2 l valid_array[0][2] [1:0] $end
    $var wire 2 m valid_array[1][0] [1:0] $end
    $var wire 2 n valid_array[1][1] [1:0] $end
    $var wire 2 o valid_array[1][2] [1:0] $end
    $var wire 2 p LRU_array[0][0] [1:0] $end
    $var wire 2 q LRU_array[0][1] [1:0] $end
    $var wire 2 r LRU_array[0][2] [1:0] $end
    $var wire 2 s LRU_array[1][0] [1:0] $end
    $var wire 2 t LRU_array[1][1] [1:0] $end
    $var wire 2 u LRU_array[1][2] [1:0] $end
    $var wire 2 Q hit_way [1:0] $end
    $var wire 2 v empty_way [1:0] $end
    $var wire 1 w empty_found $end
    $var wire 2 x oldest_way [1:0] $end
    $var wire 2 Q reset_way [1:0] $end
    $var wire 2 P replace_way [1:0] $end
    $scope module unnamedblk1 $end
     $var wire 32 2! i [31:0] $end
    $upscope $end
    $scope module unnamedblk2 $end
     $var wire 32 2! i [31:0] $end
    $upscope $end
    $scope module unnamedblk3 $end
     $var wire 32 2! i [31:0] $end
    $upscope $end
    $scope module unnamedblk4 $end
     $var wire 32 y i [31:0] $end
    $upscope $end
    $scope module unnamedblk5 $end
     $var wire 32 z i [31:0] $end
    $upscope $end
   $upscope $end
   $scope module memory1 $end
    $var wire 32 &! AWIDTH [31:0] $end
    $var wire 32 &! DWIDTH [31:0] $end
    $var wire 32 3! BASE_ADDR [31:0] $end
    $var wire 1 ~ clk $end
    $var wire 1 # rst $end
    $var wire 32 { addr_i [31:0] $end
    $var wire 32 F addr_dat [31:0] $end
    $var wire 64 M data_dat [63:0] $end
    $var wire 1 = read_en_i $end
    $var wire 1 = read_en_dat $end
    $var wire 1 > write_en_dat $end
    $var wire 3 #! funct3_i [2:0] $end
    $var wire 1 L write_finished $end
    $var wire 1 ,! ready $end
    $var wire 32 G data_o [31:0] $end
    $var wire 64 ? data_dat_o [63:0] $end
    $var wire 32 4! MEM_BYTES [31:0] $end
    $var wire 32 | address [31:0] $end
    $var wire 32 H address_dat [31:0] $end
    $var wire 32 / i [31:0] $end
    $scope module unnamedblk1 $end
     $var wire 32 I i [31:0] $end
    $upscope $end
    $scope module unnamedblk2 $end
     $var wire 32 } i [31:0] $end
    $upscope $end
   $upscope $end
  $upscope $end
 $upscope $end
$enddefinitions $end


#0
1#
b0000000001011110000011 $
b0000000000011010000011 %
b0000000010011000000011 &
b0000000001011110100011 '
b0000000000011010000011 (
b0000000010011000000011 )
b0000000100011110000011 *
b0000000001011010100011 +
b0000000010011000000011 ,
b0000000000000000000011 -
b0000000000000000000000 .
b00000000000000000000000010010011 /
b00000000000000 0
b00000000000000000000000000000000 1
b000 2
03
b0000000000 4
b00000000000000 5
b00000000000000 6
b00 7
18
09
b00000000000000 :
1;
0<
1=
0>
b1100101111111101111011111001000011001011111111011110111110010000 ?
1A
0B
0C
b0000000000000000000000000000000000000000000000000000000000000000 D
b00000000000000000000000000000000 F
b11011110101011011011111011101111 G
b00000000000000000000000000000000 H
b00000000000000000000000000001000 I
0J
0K
0L
b0000000000000000000000000000000000000000000000000000000000000000 M
0O
b10 P
b00 Q
b000000000000000000000000000000000000000000000000000000000000000000000000000000000000000000000000000000000000000000000000000000000000000000000000000000000000000000000000000000000000000000000000 R
b000000000000000000000000000000000000000000000000000000000000000000000000000000000000000000000000000000000000000000000000000000000000000000000000000000000000000000000000000000000000000000000000000000000000000000000000000000000000000000000000000000000000000000000000000000000000000000000000000000000000000000000000000000000000000000000000000000000000000000000000000000000000000000000000 X
b0000000000 d
b0000000000 e
b0000000000 f
b0000000000 g
b0000000000 h
b0000000000 i
b00 j
b00 k
b00 l
b00 m
b00 n
b00 o
b00 p
b00 q
b00 r
b00 s
b00 t
b00 u
b10 v
1w
b10 x
b00000000000000000000000000000000 y
b00000000000000000000000000000000 z
b00000000000000000000000000000000 {
b11111111000000000000000000000000 |
b00000000000000000000000000000000 }
0~
b00000000000000000000000000000000 !!
b0000011 "!
b011 #!
b00000000000000000000000000000000 $!
b00000000000000000000000000001110 %!
b00000000000000000000000000100000 &!
b00000000000000000000000000000010 '!
b00000000000000000000000000000011 (!
b00000000000000000000000000000001 )!
b00000000000000000000000000001010 *!
b00000000000000000000000000000000 +!
1,!
b00000000000000000000000000001010 -!
b00000000000000000000000000000001 .!
b00000000000000000000000000000011 /!
b00000000000000000000000000001000 0!
b000 1!
b00000000000000000000000000000011 2!
b00000001000000000000000000000000 3!
b00000000000010011100101000000000 4!
b00000000000000000000000000000000 5!
b0110011 6!
b0010011 7!
b0000011 8!
b0100011 9!
b1100011 :!
b1100111 ;!
b1101111 <!
b0110111 =!
b0010111 >!
b0000 ?!
b0001 @!
b0010 A!
b0011 B!
b0100 C!
b0101 D!
b0110 E!
b0111 F!
b1000 G!
b1001 H!
b1010 I!
b1111 J!
#1
0;
1B
1J
1~
#2
0~
#3
08
19
0A
0B
b1100101111111101111011111001000000000000000000000000000000000000 D
0J
1O
b01 P
b10 Q
b000000000000000000000000000000000000000000000000000000000000000000000000000000000000000000000000000000000000000000000000000000001100101111111101111011111001000011001011111111011110111110010000 R
b000000000000000000000000000000000000000000000000000000000000000000000000000000000000000000000000000000000000000000000000000000001100101111111101111011111001000011001011111111011110111110010000000000000000000000000000000000000000000000000000000000000000000000000000000000000000000000000000000000000000000000000000000000000000000000000000000000000000000000000000000000000000000000000000 X
b01 l
b01 v
b00000000000000000000000000000011 z
1~
b11001011111111011110111110010000 $!
#4
0~
#5
b00000000101111 0
b00000000000000000000000000000001 1
b111 2
13
b0000000010 4
b00000000101000 5
b00000000001000 6
18
09
1;
1A
b0000000000000000000000000000000000000000000000000000000000000000 D
0O
b10 P
b00 Q
b000000000000000000000000000000000000000000000000000000000000000000000000000000000000000000000000000000000000000000000000000000000000000000000000000000000000000000000000000000000000000000000000 R
b10 v
b00000000000000000000000000000011 y
b00000000000000000000000000101111 {
b11111111000000000000000000101111 |
1~
b00000000000000000000000000000000 $!
#6
0~
#7
b00000000101000 :
0;
1B
b00000000000000000000000000101000 F
b00000000000000000000000000101000 H
1J
1~
#8
0~
#9
08
19
0A
0B
b1100101111111101111011111001000000000000000000000000000000000000 D
0J
1O
b01 P
b10 Q
b000000000000000000000000000000000000000000000000000000000000000000000000000000000000000000000000000000000000000000000000000000001100101111111101111011111001000011001011111111011110111110010000 R
b000000000000000000000000000000000000000000000000000000000000000000000000000000000000000000000000000000000000000000000000000000001100101111111101111011111001000011001011111111011110111110010000000000000000000000000000000000000000000000000000000000000000000000000000000000000000000000000000000000000000000000000000000000001100101111111101111011111001000011001011111111011110111110010000 X
b0000000010 i
b01 o
b01 v
1~
b00000000000000000000000011001011 $!
#10
0~
#11
b00000000001101 0
b00000000000000000000000000000010 1
b101 2
b0000000000 4
b00000000001000 5
18
09
1;
1A
b0000000000000000000000000000000000000000000000000000000000000000 D
0O
b00 Q
b00000000000000000000000000001101 {
b11111111000000000000000000001101 |
1~
b10010000000000000000000000000000 $!
#12
0~
#13
b00000000001000 :
0;
1B
b00000000000000000000000000001000 F
b00000000000000000000000000001000 H
1J
1~
#14
0~
#15
08
19
0A
0B
b1100101111111101111011111001000000000000000000000000000000000000 D
0J
1O
b00 P
b01 Q
b000000000000000000000000000000000000000000000000000000000000000011001011111111011110111110010000110010111111110111101111100100001100101111111101111011111001000011001011111111011110111110010000 R
b000000000000000000000000000000000000000000000000000000000000000000000000000000000000000000000000000000000000000000000000000000001100101111111101111011111001000011001011111111011110111110010000000000000000000000000000000000000000000000000000000000000000000011001011111111011110111110010000110010111111110111101111100100001100101111111101111011111001000011001011111111011110111110010000 X
b01 n
b01 u
b00 v
1~
b00000000110010111111110111101111 $!
#16
0~
#17
b00000001001100 0
b00000000000000000000000000000011 1
b100 2
b0000000100 4
b00000001001000 5
18
09
1;
1A
b0000000000000000000000000000000000000000000000000000000000000000 D
0O
b00 Q
b00000000000000000000000001001100 {
b11111111000000000000000001001100 |
1~
b00000000000000000000000000000000 $!
#18
0~
#19
b00000001001000 :
0;
1B
b00000000000000000000000001001000 F
b00000000000000000000000001001000 H
1J
1~
#20
0~
#21
b00000000101000 6
b01 7
08
19
0A
0B
b1100101111111101111011111001000000000000000000000000000000000000 D
0J
b1100101111111101111011111001000011001011111111011110111110010000 M
1O
b10 P
b110010111111110111101111100100001100101111111101111011111001000011001011111111011110111110010000110010111111110111101111100100001100101111111101111011111001000011001011111111011110111110010000 R
b000000000000000000000000000000000000000000000000000000000000000000000000000000000000000000000000000000000000000000000000000000001100101111111101111011111001000011001011111111011110111110010000110010111111110111101111100100001100101111111101111011111001000011001011111111011110111110010000110010111111110111101111100100001100101111111101111011111001000011001011111111011110111110010000 X
b0000000100 g
b01 m
b01 t
b10 u
0w
1~
b11001011111111011110111110010000 $!
#22
0~
#23
b00000000101111 0
b00000000000000000000000000000100 1
b111 2
b0000000010 4
b00000000101000 5
09
1C
b10 Q
b00000000000000000000000000101111 {
b11111111000000000000000000101111 |
1~
b0100011 "!
b11111101111011111001000011001011 $!
#24
0~
#25
b00000000001101 0
b00000000000000000000000000000101 1
b101 2
b0000000000 4
b00000000001000 5
b00000000001000 6
19
0C
b01 P
b01 Q
b110010111111110111101111100100001100101111111101111011111001000011001011111111011110111110010000110010111111110111101111100100001100101111111101111011111001000000000000000000000000000000000000 R
b000000000000000000000000000000000000000000000000000000000000000000000000000000000000000000000000000000000000000000000000000000001100101111111101111011111001000011001011111111011110111110010000110010111111110111101111100100001100101111111101111011111001000011001011111111011110111110010000110010111111110111101111100100001100101111111101111011111001000000000000000000000000000000000000 X
b10 o
b01 s
b10 t
b00 u
b01 x
b00000000000000000000000000001101 {
b11111111000000000000000000001101 |
1~
b0000011 "!
b10010000110010111111110111101111 $!
#26
0~
#27
b00000001001100 0
b00000000000000000000000000000110 1
b100 2
b0000000100 4
b00000001001000 5
b00000001001000 6
b00 P
b00 Q
b10 s
b00 t
b01 u
b00 x
b00000000000000000000000001001100 {
b11111111000000000000000001001100 |
1~
b11001011111111011110111110010000 $!
#28
0~
#29
b00000010001111 0
b00000000000000000000000000000111 1
b111 2
b0000001000 4
b00000010001000 5
b00000000101000 6
b10 7
18
09
1;
1<
1A
b1100101111111101111011111001000000000000000000000000000000000000 M
0O
b10 P
b00 s
b01 t
b10 u
b10 x
b00000000000000000000000010001111 {
b11111111000000000000000010001111 |
1~
b00000000000000000000000011001011 $!
#30
0~
#31
b00000000101000 :
0=
1>
b0000000000000000000000000000000000000000000000000000000000000000 ?
b00000000000000000000000000101000 F
b00000000000000000000000000000000 G
b00000000000000000000000000101000 H
1J
1K
1~
#32
0~
#33
0<
1L
b00000000000000000000000000001000 }
1~
#34
0~
#35
b00000010001000 :
0;
1=
0>
b1100101111111101111011111001000011001011111111011110111110010000 ?
1B
b00000000000000000000000010001000 F
b11011110101011011011111011101111 G
b00000000000000000000000010001000 H
0K
1~
#36
0~
#37
b00000010001000 6
b01 7
08
19
0A
0B
0J
0L
b1100101111111101111011111001000011001011111111011110111110010000 M
1O
b10 Q
b110010111111110111101111100100001100101111111101111011111001000011001011111111011110111110010000110010111111110111101111100100001100101111111101111011111001000011001011111111011110111110010000 R
b000000000000000000000000000000000000000000000000000000000000000000000000000000000000000000000000000000000000000000000000000000001100101111111101111011111001000011001011111111011110111110010000110010111111110111101111100100001100101111111101111011111001000011001011111111011110111110010000110010111111110111101111100100001100101111111101111011111001000011001011111111011110111110010000 X
b0000001000 i
b01 o
1~
b11111101111011111001000011001011 $!
#38
0~
#39
b00000000101101 0
b00000000000000000000000000001000 1
b101 2
b0000000010 4
b00000000101000 5
b00000000001000 6
18
09
1;
1A
0O
b01 P
b00 Q
b01 s
b10 t
b00 u
b01 x
b00000000000000000000000000101101 {
b11111111000000000000000000101101 |
1~
b0100011 "!
b10010000110010111111110111101111 $!
#40
0~
#41
b00000000101000 :
0;
b1100101111111101111011111001000000000000000000000000000000000000 ?
1B
b00000000000000000000000000101000 F
b00000000000000000000000000101000 H
1J
1~
#42
0~
#43
b00000000101000 6
08
0A
0B
1C
0J
b1100101111111101111011111001000000000000000000000000000000000000 M
1O
b01 Q
b110010111111110111101111100100001100101111111101111011111001000011001011111111011110111110010000000000000000000000000000000000001100101111111101111011111001000011001011111111011110111110010000 R
b000000000000000000000000000000000000000000000000000000000000000000000000000000000000000000000000000000000000000000000000000000001100101111111101111011111001000011001011111111011110111110010000110010111111110111101111100100001100101111111101111011111001000011001011111111011110111110010000000000000000000000000000000000001100101111111101111011111001000011001011111111011110111110010000 X
b0000000010 h
1~
#44
0~
#45
b00000001001100 0
b00000000000000000000000000001001 1
b100 2
b0000000100 4
b00000001001000 5
b00000001001000 6
19
0C
b1100101111111101111011111001000011001011111111011110111110010000 M
b00 P
b00 Q
b10 n
b10 s
b00 t
b01 u
b00 x
b00000000000000000000000001001100 {
b11111111000000000000000001001100 |
1~
b0000011 "!
b11001011111111011110111110010000 $!
#46
0~
#47
b00000000000000 0
b00000000000000000000000000001010 1
b000 2
03
b0000000000 4
b00000000000000 5
b00000000000000 6
b00 7
b0000000000000000000000000000000000000000000000000000000000000000 M
b01 P
b10 Q
b000000000000000000000000000000000000000000000000000000000000000000000000000000000000000000000000000000000000000000000000000000001100101111111101111011111001000011001011111111011110111110010000 R
b00 s
b01 t
b10 u
b01 v
1w
b10 x
b00000000000000000000000000000000 {
b11111111000000000000000000000000 |
1~
#48
0~
#49
b00000000000000000000000000001011 1
09
1A
1~
b0000000 "!
#50
0~
#51
b00000000000000000000000000001100 1
1~
#52
0~
#53
b00000000000000000000000000001101 1
1~
#54
0~
#55
b00000000000000000000000000001110 1
1~
#56
0~
#57
b00000000000000000000000000001111 1
1~
#58
0~
#59
b00000000000000000000000000010000 1
1~
#60
0~
#61
b00000000101111 0
b00000000000000000000000000010001 1
b111 2
13
b0000000010 4
b00000000101000 5
b00000010001000 6
b01 7
19
0A
b1100101111111101111011111001000011001011111111011110111110010000 M
b10 P
b01 Q
b110010111111110111101111100100001100101111111101111011111001000011001011111111011110111110010000000000000000000000000000000000001100101111111101111011111001000011001011111111011110111110010000 R
b00 v
0w
b00000000000000000000000000101111 {
b11111111000000000000000000101111 |
1~
b0000011 "!
b11111101111011111001000011001011 $!
#62
0~
#63
b00000000001101 0
b00000000000000000000000000010010 1
b101 2
b0000000000 4
b00000000001000 5
18
09
1;
1A
0O
b00 Q
b01 s
b00 t
b00000000000000000000000000001101 {
b11111111000000000000000000001101 |
1~
b10010000110010111111110111101111 $!
#64
0~
#65
b00000000001000 :
0;
b1100101111111101111011111001000011001011111111011110111110010000 ?
1B
b00000000000000000000000000001000 F
b00000000000000000000000000001000 H
1J
1~
#66
0~
#67
b00000000001000 6
08
19
0A
0B
0J
1O
b10 Q
b0000000000 i
1~
b00000000110010111111110111101111 $!
#68
0~
#69
b00000001001100 0
b00000000000000000000000000010011 1
b100 2
b0000000100 4
b00000001001000 5
b00000001001000 6
b00 P
b00 Q
b10 s
b01 t
b00 u
b00 x
b00000000000000000000000001001100 {
b11111111000000000000000001001100 |
1~
b11001011111111011110111110010000 $!
#70
0~
#71
b00000000101111 0
b00000000000000000000000000010100 1
b111 2
b0000000010 4
b00000000101000 5
b00000000001000 6
09
1C
b10 P
b01 Q
b00 s
b10 t
b01 u
b10 x
b00000000000000000000000000101111 {
b11111111000000000000000000101111 |
1~
b0100011 "!
b11111101111011111001000011001011 $!
#72
0~
#73
b00000000001101 0
b00000000000000000000000000010101 1
b101 2
b0000000000 4
b00000000001000 5
19
0C
b10 Q
b01 s
b00 t
b10 u
b00000000000000000000000000001101 {
b11111111000000000000000000001101 |
1~
b0000011 "!
b00000000110010111111110111101111 $!
#74
0~
#75
b00000001001100 0
b00000000000000000000000000010110 1
b100 2
b0000000100 4
b00000001001000 5
b00000001001000 6
b00 P
b00 Q
b10 s
b01 t
b00 u
b00 x
b00000000000000000000000001001100 {
b11111111000000000000000001001100 |
1~
b11001011111111011110111110010000 $!
#76
0~
#77
b00000010001111 0
b00000000000000000000000000010111 1
b111 2
b0000001000 4
b00000010001000 5
b00000000001000 6
18
09
1;
1A
0O
b10 P
b00 s
b10 t
b01 u
b10 x
b00000000000000000000000010001111 {
b11111111000000000000000010001111 |
1~
b11111101111011111001000011001011 $!
#78
0~
#79
b00000010001000 :
0;
1B
b00000000000000000000000010001000 F
b00000000000000000000000010001000 H
1J
1~
#80
0~
#81
b00000010001000 6
08
19
0A
0B
0J
1O
b10 Q
b0000001000 i
1~
b00000000000000000000000011001011 $!
#82
0~
#83
b00000000101101 0
b00000000000000000000000000011000 1
b101 2
b0000000010 4
b00000000101000 5
b00000000101000 6
b10 7
09
1C
b1100101111111101111011111001000000000000000000000000000000000000 M
b01 P
b01 Q
b01 s
b00 u
b01 x
b00000000000000000000000000101101 {
b11111111000000000000000000101101 |
1~
b0100011 "!
b10010000110010111111110111101111 $!
#84
0~
#85
b00000001001100 0
b00000000000000000000000000011001 1
b100 2
b0000000100 4
b00000001001000 5
b00000001001000 6
b01 7
19
0C
b1100101111111101111011111001000011001011111111011110111110010000 M
b00 P
b00 Q
b10 s
b00 t
b01 u
b00 x
b00000000000000000000000001001100 {
b11111111000000000000000001001100 |
1~
b0000011 "!
b11001011111111011110111110010000 $!
#86
0~
#87
b00000000000000 0
b00000000000000000000000000011010 1
b000 2
03
b0000000000 4
b00000000000000 5
b00000000000000 6
b00 7
b0000000000000000000000000000000000000000000000000000000000000000 M
b01 P
b10 Q
b000000000000000000000000000000000000000000000000000000000000000000000000000000000000000000000000000000000000000000000000000000001100101111111101111011111001000011001011111111011110111110010000 R
b00 s
b01 t
b10 u
b01 v
1w
b10 x
b00000000000000000000000000000000 {
b11111111000000000000000000000000 |
1~
#88
0~
#89
b00000000000000000000000000011011 1
09
1A
1~
b0000000 "!
#90
0~
#91
b00000000000000000000000000011100 1
1~
#92
0~
#93
b00000000000000000000000000011101 1
1~
#94
0~
#95
b00000000000000000000000000011110 1
1~
#96
0~
#97
b00000000000000000000000000011111 1
1~
#98
0~
#99
b00000000000000000000000000100000 1
1~
