cache.vcd
$version Generated by VerilatedVcd $end
$timescale 1ps $end
 $scope module $unit $end
  $var wire 32 7! ZERO [31:0] $end
  $var wire 7 8! OP_R [6:0] $end
  $var wire 7 9! OP_I [6:0] $end
  $var wire 7 :! OP_LOAD [6:0] $end
  $var wire 7 ;! OP_STORE [6:0] $end
  $var wire 7 <! OP_BRANCH [6:0] $end
  $var wire 7 =! OP_JALR [6:0] $end
  $var wire 7 >! OP_JAL [6:0] $end
  $var wire 7 ?! OP_LUI [6:0] $end
  $var wire 7 @! OP_AUIPC [6:0] $end
  $var wire 4 A! ALU_ADD [3:0] $end
  $var wire 4 B! ALU_SUB [3:0] $end
  $var wire 4 C! ALU_AND [3:0] $end
  $var wire 4 D! ALU_OR [3:0] $end
  $var wire 4 E! ALU_XOR [3:0] $end
  $var wire 4 F! ALU_SLT [3:0] $end
  $var wire 4 G! ALU_SLL [3:0] $end
  $var wire 4 H! ALU_SRL [3:0] $end
  $var wire 4 I! ALU_SRA [3:0] $end
  $var wire 4 J! ALU_LUI [3:0] $end
  $var wire 4 K! ALU_BRANCH [3:0] $end
  $var wire 4 L! ALU_NOP [3:0] $end
 $upscope $end
 $scope module cache_tb $end
  $var wire 1 #! clk $end
  $var wire 1 # reset $end
  $var wire 32 (! AWIDTH [31:0] $end
  $var wire 32 )! DWIDTH [31:0] $end
  $var wire 32 *! NUM_SETS [31:0] $end
  $var wire 32 +! OFFSET_BITS [31:0] $end
  $var wire 32 ,! INDEX_BITS [31:0] $end
  $var wire 32 -! TAG_BITS [31:0] $end
  $var wire 14 0 address [13:0] $end
  $var wire 32 $! store_data [31:0] $end
  $var wire 7 %! opcode_i [6:0] $end
  $var wire 3 &! funct3_i [2:0] $end
  $var wire 32 '! data_out [31:0] $end
  $var wire 1 8 stall $end
  $var wire 1 9 data_valid $end
  $var wire 22 $ test_addresses[0] [21:0] $end
  $var wire 22 % test_addresses[1] [21:0] $end
  $var wire 22 & test_addresses[2] [21:0] $end
  $var wire 22 ' test_addresses[3] [21:0] $end
  $var wire 22 ( test_addresses[4] [21:0] $end
  $var wire 22 ) test_addresses[5] [21:0] $end
  $var wire 22 * test_addresses[6] [21:0] $end
  $var wire 22 + test_addresses[7] [21:0] $end
  $var wire 22 , test_addresses[8] [21:0] $end
  $var wire 22 - test_addresses[9] [21:0] $end
  $var wire 22 . test_addresses[10] [21:0] $end
  $var wire 32 1 i [31:0] $end
  $scope module cache $end
   $var wire 32 (! AWIDTH [31:0] $end
   $var wire 32 )! DWIDTH [31:0] $end
   $var wire 1 #! clk $end
   $var wire 1 # reset $end
   $var wire 14 0 address [13:0] $end
   $var wire 32 $! store_data [31:0] $end
   $var wire 7 %! opcode_i [6:0] $end
   $var wire 3 &! funct3_i [2:0] $end
   $var wire 32 '! data_out [31:0] $end
   $var wire 1 8 stall $end
   $var wire 1 9 data_valid $end
   $var wire 32 *! NUM_SETS [31:0] $end
   $var wire 32 +! OFFSET_BITS [31:0] $end
   $var wire 32 ,! INDEX_BITS [31:0] $end
   $var wire 32 -! TAG_BITS [31:0] $end
   $var wire 3 2 offset [2:0] $end
   $var wire 1 3 index [0:0] $end
   $var wire 10 4 tag [9:0] $end
   $var wire 14 : memory_address [13:0] $end
   $var wire 14 5 read_address [13:0] $end
   $var wire 14 6 replace_address [13:0] $end
   $var wire 32 .! CACHE [31:0] $end
   $var wire 32 ,! MAIN_MEMORY [31:0] $end
   $var wire 1 K curr_state $end
   $var wire 1 ; next_state $end
   $var wire 32 .! READING [31:0] $end
   $var wire 32 ,! WRITE_BACK [31:0] $end
   $var wire 1 L curr_state_mem $end
   $var wire 1 < next_state_mem $end
   $var wire 32 ,! HIT [31:0] $end
   $var wire 32 .! MISS [31:0] $end
   $var wire 1 = read_en $end
   $var wire 1 > write_en $end
   $var wire 64 ? mem_out [63:0] $end
   $var wire 1 M ready $end
   $var wire 1 N write_finished $end
   $var wire 64 O mem_store [63:0] $end
   $var wire 1 A request $end
   $var wire 1 Q hit $end
   $var wire 1 B idle $end
   $var wire 2 R replace_way [1:0] $end
   $var wire 2 S hit_way [1:0] $end
   $var wire 2 7 replace_way_state [1:0] $end
   $var wire 1 C replace_en $end
   $var wire 1 D store_en $end
   $var wire 192 T set [191:0] $end
   $scope module cache_data_array $end
    $var wire 32 /! TAG_BITS [31:0] $end
    $var wire 32 0! INDEX_BITS [31:0] $end
    $var wire 32 1! OFFSET_BITS [31:0] $end
    $var wire 32 *! NUM_SETS [31:0] $end
    $var wire 32 2! BLOCK_SIZE [31:0] $end
    $var wire 32 1! WAYS [31:0] $end
    $var wire 32 )! DWIDTH [31:0] $end
    $var wire 1 #! clk $end
    $var wire 1 3 index_i [0:0] $end
    $var wire 3 3! offset [2:0] $end
    $var wire 2 R replace_way [1:0] $end
    $var wire 2 S hit_way [1:0] $end
    $var wire 64 ? cache_line_i [63:0] $end
    $var wire 32 $! store_data [31:0] $end
    $var wire 3 &! funct3_i [2:0] $end
    $var wire 1 C replace_en $end
    $var wire 1 D store_en $end
    $var wire 192 T set_o [191:0] $end
    $var wire 384 Z data_array [383:0] $end
    $var wire 64 E temp [63:0] $end
   $upscope $end
   $scope module cache_tag_array $end
    $var wire 32 (! AWIDTH [31:0] $end
    $var wire 32 /! TAG_BITS [31:0] $end
    $var wire 32 0! INDEX_BITS [31:0] $end
    $var wire 32 *! NUM_SETS [31:0] $end
    $var wire 32 1! OFFSET_BITS [31:0] $end
    $var wire 1 #! clk $end
    $var wire 1 B idle $end
    $var wire 10 4 tag_i [9:0] $end
    $var wire 1 3 index_i [0:0] $end
    $var wire 1 C replace_en $end
    $var wire 1 D store_en $end
    $var wire 1 Q hit $end
    $var wire 2 S hit_way_o [1:0] $end
    $var wire 2 R replace_way_o [1:0] $end
    $var wire 2 7 replace_way_state [1:0] $end
    $var wire 14 6 replace_address [13:0] $end
    $var wire 32 1! WAYS [31:0] $end
    $var wire 10 f tag_array[0][0] [9:0] $end
    $var wire 10 g tag_array[0][1] [9:0] $end
    $var wire 10 h tag_array[0][2] [9:0] $end
    $var wire 10 i tag_array[1][0] [9:0] $end
    $var wire 10 j tag_array[1][1] [9:0] $end
    $var wire 10 k tag_array[1][2] [9:0] $end
    $var wire 2 l valid_array[0][0] [1:0] $end
    $var wire 2 m valid_array[0][1] [1:0] $end
    $var wire 2 n valid_array[0][2] [1:0] $end
    $var wire 2 o valid_array[1][0] [1:0] $end
    $var wire 2 p valid_array[1][1] [1:0] $end
    $var wire 2 q valid_array[1][2] [1:0] $end
    $var wire 2 r LRU_array[0][0] [1:0] $end
    $var wire 2 s LRU_array[0][1] [1:0] $end
    $var wire 2 t LRU_array[0][2] [1:0] $end
    $var wire 2 u LRU_array[1][0] [1:0] $end
    $var wire 2 v LRU_array[1][1] [1:0] $end
    $var wire 2 w LRU_array[1][2] [1:0] $end
    $var wire 2 S hit_way [1:0] $end
    $var wire 2 x empty_way [1:0] $end
    $var wire 1 y empty_found $end
    $var wire 2 z oldest_way [1:0] $end
    $var wire 2 S reset_way [1:0] $end
    $var wire 2 R replace_way [1:0] $end
    $scope module unnamedblk1 $end
     $var wire 32 4! i [31:0] $end
    $upscope $end
    $scope module unnamedblk2 $end
     $var wire 32 4! i [31:0] $end
    $upscope $end
    $scope module unnamedblk3 $end
     $var wire 32 4! i [31:0] $end
    $upscope $end
    $scope module unnamedblk4 $end
     $var wire 32 { i [31:0] $end
    $upscope $end
    $scope module unnamedblk5 $end
     $var wire 32 | i [31:0] $end
    $upscope $end
   $upscope $end
   $scope module memory1 $end
    $var wire 32 )! AWIDTH [31:0] $end
    $var wire 32 )! DWIDTH [31:0] $end
    $var wire 32 5! BASE_ADDR [31:0] $end
    $var wire 32 /! MEM_DELAY [31:0] $end
    $var wire 1 #! clk $end
    $var wire 1 # rst $end
    $var wire 32 } addr_i [31:0] $end
    $var wire 32 G addr_dat [31:0] $end
    $var wire 64 O data_dat [63:0] $end
    $var wire 1 = read_en_i $end
    $var wire 1 = read_en_dat $end
    $var wire 1 > write_en_dat $end
    $var wire 3 &! funct3_i [2:0] $end
    $var wire 1 A request $end
    $var wire 1 N write_finished $end
    $var wire 1 M ready $end
    $var wire 32 H data_o [31:0] $end
    $var wire 64 ? data_dat_o [63:0] $end
    $var wire 32 6! MEM_BYTES [31:0] $end
    $var wire 4 ~ delay [3:0] $end
    $var wire 32 !! address [31:0] $end
    $var wire 32 I address_dat [31:0] $end
    $var wire 32 / i [31:0] $end
    $scope module unnamedblk1 $end
     $var wire 32 J i [31:0] $end
    $upscope $end
    $scope module unnamedblk2 $end
     $var wire 32 "! i [31:0] $end
    $upscope $end
   $upscope $end
  $upscope $end
 $upscope $end
$enddefinitions $end


#0
1#
b0000000001011110000011 $
b0000000000011010000011 %
b0000000010011000000011 &
b0000000001011110100011 '
b0000000000011010000011 (
b0000000010011000000011 )
b0000000100011110000011 *
b0000000001011010100011 +
b0000000010011000000011 ,
b0000000000000000000011 -
b0000000000000000000000 .
b00000000000000000000000010010011 /
b00000000000000 0
b00000000000000000000000000000000 1
b000 2
03
b0000000000 4
b00000000000000 5
b00000000000000 6
b00 7
18
09
b00000000000000 :
1;
0<
1=
0>
b1100101111111101111011111001000011001011111111011110111110010000 ?
0A
1B
0C
0D
b0000000000000000000000000000000000000000000000000000000000000000 E
b00000000000000000000000000000000 G
b11011110101011011011111011101111 H
b00000000000000000000000000000000 I
b00000000000000000000000000001000 J
0K
0L
0M
0N
b0000000000000000000000000000000000000000000000000000000000000000 O
0Q
b10 R
b00 S
b000000000000000000000000000000000000000000000000000000000000000000000000000000000000000000000000000000000000000000000000000000000000000000000000000000000000000000000000000000000000000000000000 T
b000000000000000000000000000000000000000000000000000000000000000000000000000000000000000000000000000000000000000000000000000000000000000000000000000000000000000000000000000000000000000000000000000000000000000000000000000000000000000000000000000000000000000000000000000000000000000000000000000000000000000000000000000000000000000000000000000000000000000000000000000000000000000000000000 Z
b0000000000 f
b0000000000 g
b0000000000 h
b0000000000 i
b0000000000 j
b0000000000 k
b00 l
b00 m
b00 n
b00 o
b00 p
b00 q
b00 r
b00 s
b00 t
b00 u
b00 v
b00 w
b10 x
1y
b10 z
b00000000000000000000000000000000 {
b00000000000000000000000000000000 |
b00000000000000000000000000000000 }
b0000 ~
b11111111000000000000000000000000 !!
b00000000000000000000000000000000 "!
0#!
b00000000000000000000000000000000 $!
b0000011 %!
b011 &!
b00000000000000000000000000000000 '!
b00000000000000000000000000001110 (!
b00000000000000000000000000100000 )!
b00000000000000000000000000000010 *!
b00000000000000000000000000000011 +!
b00000000000000000000000000000001 ,!
b00000000000000000000000000001010 -!
b00000000000000000000000000000000 .!
b00000000000000000000000000001010 /!
b00000000000000000000000000000001 0!
b00000000000000000000000000000011 1!
b00000000000000000000000000001000 2!
b000 3!
b00000000000000000000000000000011 4!
b00000001000000000000000000000000 5!
b00000000000010011100101000000000 6!
b00000000000000000000000000000000 7!
b0110011 8!
b0010011 9!
b0000011 :!
b0100011 ;!
b1100011 <!
b1100111 =!
b1101111 >!
b0110111 ?!
b0010111 @!
b0000 A!
b0001 B!
b0010 C!
b0011 D!
b0100 E!
b0101 F!
b0110 G!
b0111 H!
b1000 I!
b1001 J!
b1010 K!
b1111 L!
#1
1A
1K
1#!
#2
0#!
#3
b0001 ~
1#!
#4
0#!
#5
b0010 ~
1#!
#6
0#!
#7
b0011 ~
1#!
#8
0#!
#9
b0100 ~
1#!
#10
0#!
#11
b0101 ~
1#!
#12
0#!
#13
b0110 ~
1#!
#14
0#!
#15
b0111 ~
1#!
#16
0#!
#17
b1000 ~
1#!
#18
0#!
#19
b1001 ~
1#!
#20
0#!
#21
b1010 ~
1#!
#22
0#!
#23
0;
1C
1M
b0000 ~
1#!
#24
0#!
#25
08
19
0A
0B
0C
b1100101111111101111011111001000000000000000000000000000000000000 E
0K
0M
1Q
b01 R
b10 S
b000000000000000000000000000000000000000000000000000000000000000000000000000000000000000000000000000000000000000000000000000000001100101111111101111011111001000011001011111111011110111110010000 T
b000000000000000000000000000000000000000000000000000000000000000000000000000000000000000000000000000000000000000000000000000000001100101111111101111011111001000011001011111111011110111110010000000000000000000000000000000000000000000000000000000000000000000000000000000000000000000000000000000000000000000000000000000000000000000000000000000000000000000000000000000000000000000000000000 Z
b01 n
b01 x
b00000000000000000000000000000011 |
b0001 ~
1#!
b11001011111111011110111110010000 '!
#26
0#!
#27
b00000000101111 0
b00000000000000000000000000000001 1
b111 2
13
b0000000010 4
b00000000101000 5
b00000000001000 6
18
09
1;
1B
b0000000000000000000000000000000000000000000000000000000000000000 E
0Q
b10 R
b00 S
b000000000000000000000000000000000000000000000000000000000000000000000000000000000000000000000000000000000000000000000000000000000000000000000000000000000000000000000000000000000000000000000000 T
b10 x
b00000000000000000000000000000011 {
b00000000000000000000000000101111 }
b0000 ~
b11111111000000000000000000101111 !!
1#!
b00000000000000000000000000000000 '!
#28
0#!
#29
b00000000101000 :
1A
b00000000000000000000000000101000 G
b00000000000000000000000000101000 I
1K
1#!
#30
0#!
#31
b0001 ~
1#!
#32
0#!
#33
b0010 ~
1#!
#34
0#!
#35
b0011 ~
1#!
#36
0#!
#37
b0100 ~
1#!
#38
0#!
#39
b0101 ~
1#!
#40
0#!
#41
b0110 ~
1#!
#42
0#!
#43
b0111 ~
1#!
#44
0#!
#45
b1000 ~
1#!
#46
0#!
#47
b1001 ~
1#!
#48
0#!
#49
b1010 ~
1#!
#50
0#!
#51
0;
1C
1M
b0000 ~
1#!
#52
0#!
#53
08
19
0A
0B
0C
b1100101111111101111011111001000000000000000000000000000000000000 E
0K
0M
1Q
b01 R
b10 S
b000000000000000000000000000000000000000000000000000000000000000000000000000000000000000000000000000000000000000000000000000000001100101111111101111011111001000011001011111111011110111110010000 T
b000000000000000000000000000000000000000000000000000000000000000000000000000000000000000000000000000000000000000000000000000000001100101111111101111011111001000011001011111111011110111110010000000000000000000000000000000000000000000000000000000000000000000000000000000000000000000000000000000000000000000000000000000000001100101111111101111011111001000011001011111111011110111110010000 Z
b0000000010 k
b01 q
b01 x
b0001 ~
1#!
b00000000000000000000000011001011 '!
#54
0#!
#55
b00000000001101 0
b00000000000000000000000000000010 1
b101 2
b0000000000 4
b00000000001000 5
18
09
1;
1B
b0000000000000000000000000000000000000000000000000000000000000000 E
0Q
b00 S
b00000000000000000000000000001101 }
b0000 ~
b11111111000000000000000000001101 !!
1#!
b10010000000000000000000000000000 '!
#56
0#!
#57
b00000000001000 :
1A
b00000000000000000000000000001000 G
b00000000000000000000000000001000 I
1K
1#!
#58
0#!
#59
b0001 ~
1#!
#60
0#!
#61
b0010 ~
1#!
#62
0#!
#63
b0011 ~
1#!
#64
0#!
#65
b0100 ~
1#!
#66
0#!
#67
b0101 ~
1#!
#68
0#!
#69
b0110 ~
1#!
#70
0#!
#71
b0111 ~
1#!
#72
0#!
#73
b1000 ~
1#!
#74
0#!
#75
b1001 ~
1#!
#76
0#!
#77
b1010 ~
1#!
#78
0#!
#79
0;
1C
1M
b0000 ~
1#!
#80
0#!
#81
08
19
0A
0B
0C
b1100101111111101111011111001000000000000000000000000000000000000 E
0K
0M
1Q
b00 R
b01 S
b000000000000000000000000000000000000000000000000000000000000000011001011111111011110111110010000110010111111110111101111100100001100101111111101111011111001000011001011111111011110111110010000 T
b000000000000000000000000000000000000000000000000000000000000000000000000000000000000000000000000000000000000000000000000000000001100101111111101111011111001000011001011111111011110111110010000000000000000000000000000000000000000000000000000000000000000000011001011111111011110111110010000110010111111110111101111100100001100101111111101111011111001000011001011111111011110111110010000 Z
b01 p
b01 w
b00 x
b0001 ~
1#!
b00000000110010111111110111101111 '!
#82
0#!
#83
b00000001001100 0
b00000000000000000000000000000011 1
b100 2
b0000000100 4
b00000001001000 5
18
09
1;
1B
b0000000000000000000000000000000000000000000000000000000000000000 E
0Q
b00 S
b00000000000000000000000001001100 }
b0000 ~
b11111111000000000000000001001100 !!
1#!
b00000000000000000000000000000000 '!
#84
0#!
#85
b00000001001000 :
1A
b00000000000000000000000001001000 G
b00000000000000000000000001001000 I
1K
1#!
#86
0#!
#87
b0001 ~
1#!
#88
0#!
#89
b0010 ~
1#!
#90
0#!
#91
b0011 ~
1#!
#92
0#!
#93
b0100 ~
1#!
#94
0#!
#95
b0101 ~
1#!
#96
0#!
#97
b0110 ~
1#!
#98
0#!
#99
b0111 ~
1#!
