cache.vcd
$version Generated by VerilatedVcd $end
$timescale 1ps $end
 $scope module $rootio $end
  $var wire 32 .! push_data [31:0] $end
  $var wire 2 /! push_pop [1:0] $end
  $var wire 1 0! reset $end
  $var wire 1 1! clk $end
  $var wire 32 2! pop_data [31:0] $end
  $var wire 1 3! buffer_full $end
 $upscope $end
 $scope module $unit $end
  $var wire 32 I! ZERO [31:0] $end
  $var wire 7 J! OP_R [6:0] $end
  $var wire 7 K! OP_I [6:0] $end
  $var wire 7 L! OP_LOAD [6:0] $end
  $var wire 7 M! OP_STORE [6:0] $end
  $var wire 7 N! OP_BRANCH [6:0] $end
  $var wire 7 O! OP_JALR [6:0] $end
  $var wire 7 P! OP_JAL [6:0] $end
  $var wire 7 Q! OP_LUI [6:0] $end
  $var wire 7 R! OP_AUIPC [6:0] $end
  $var wire 4 S! ALU_ADD [3:0] $end
  $var wire 4 T! ALU_SUB [3:0] $end
  $var wire 4 U! ALU_AND [3:0] $end
  $var wire 4 V! ALU_OR [3:0] $end
  $var wire 4 W! ALU_XOR [3:0] $end
  $var wire 4 X! ALU_SLT [3:0] $end
  $var wire 4 Y! ALU_SLL [3:0] $end
  $var wire 4 Z! ALU_SRL [3:0] $end
  $var wire 4 [! ALU_SRA [3:0] $end
  $var wire 4 \! ALU_LUI [3:0] $end
  $var wire 4 ]! ALU_BRANCH [3:0] $end
  $var wire 4 ^! ALU_NOP [3:0] $end
 $upscope $end
 $scope module cache_tb $end
  $var wire 1 4! clk $end
  $var wire 1 # reset $end
  $var wire 32 9! AWIDTH [31:0] $end
  $var wire 32 :! DWIDTH [31:0] $end
  $var wire 32 ;! NUM_SETS [31:0] $end
  $var wire 32 <! OFFSET_BITS [31:0] $end
  $var wire 32 =! INDEX_BITS [31:0] $end
  $var wire 32 >! TAG_BITS [31:0] $end
  $var wire 14 0 address [13:0] $end
  $var wire 32 5! store_data [31:0] $end
  $var wire 7 6! opcode_i [6:0] $end
  $var wire 3 7! funct3_i [2:0] $end
  $var wire 32 8! data_out [31:0] $end
  $var wire 1 8 stall $end
  $var wire 1 9 data_valid $end
  $var wire 22 $ test_addresses[0] [21:0] $end
  $var wire 22 % test_addresses[1] [21:0] $end
  $var wire 22 & test_addresses[2] [21:0] $end
  $var wire 22 ' test_addresses[3] [21:0] $end
  $var wire 22 ( test_addresses[4] [21:0] $end
  $var wire 22 ) test_addresses[5] [21:0] $end
  $var wire 22 * test_addresses[6] [21:0] $end
  $var wire 22 + test_addresses[7] [21:0] $end
  $var wire 22 , test_addresses[8] [21:0] $end
  $var wire 22 - test_addresses[9] [21:0] $end
  $var wire 22 . test_addresses[10] [21:0] $end
  $var wire 32 1 i [31:0] $end
  $scope module cache $end
   $var wire 32 9! AWIDTH [31:0] $end
   $var wire 32 :! DWIDTH [31:0] $end
   $var wire 1 4! clk $end
   $var wire 1 # reset $end
   $var wire 14 0 address [13:0] $end
   $var wire 32 5! store_data [31:0] $end
   $var wire 7 6! opcode_i [6:0] $end
   $var wire 3 7! funct3_i [2:0] $end
   $var wire 32 8! data_out [31:0] $end
   $var wire 1 8 stall $end
   $var wire 1 9 data_valid $end
   $var wire 32 ;! NUM_SETS [31:0] $end
   $var wire 32 <! OFFSET_BITS [31:0] $end
   $var wire 32 =! INDEX_BITS [31:0] $end
   $var wire 32 >! TAG_BITS [31:0] $end
   $var wire 3 2 offset [2:0] $end
   $var wire 1 3 index [0:0] $end
   $var wire 10 4 tag [9:0] $end
   $var wire 14 : memory_address [13:0] $end
   $var wire 14 5 read_address [13:0] $end
   $var wire 14 6 replace_address [13:0] $end
   $var wire 32 ?! CACHE [31:0] $end
   $var wire 32 =! MAIN_MEMORY [31:0] $end
   $var wire 1 V curr_state $end
   $var wire 1 ; next_state $end
   $var wire 32 ?! READING [31:0] $end
   $var wire 32 =! WRITE_BACK [31:0] $end
   $var wire 1 W curr_state_mem $end
   $var wire 1 < next_state_mem $end
   $var wire 32 =! HIT [31:0] $end
   $var wire 32 ?! MISS [31:0] $end
   $var wire 1 = read_en $end
   $var wire 1 > write_en $end
   $var wire 64 ? mem_out [63:0] $end
   $var wire 1 X ready $end
   $var wire 1 Y write_finished $end
   $var wire 64 Z mem_store [63:0] $end
   $var wire 1 A request $end
   $var wire 1 \ hit $end
   $var wire 1 B idle $end
   $var wire 2 ] replace_way [1:0] $end
   $var wire 2 ^ hit_way [1:0] $end
   $var wire 2 7 replace_way_state [1:0] $end
   $var wire 1 C replace_en $end
   $var wire 1 D store_en $end
   $var wire 192 _ set [191:0] $end
   $scope module cache_data_array $end
    $var wire 32 @! TAG_BITS [31:0] $end
    $var wire 32 A! INDEX_BITS [31:0] $end
    $var wire 32 B! OFFSET_BITS [31:0] $end
    $var wire 32 ;! NUM_SETS [31:0] $end
    $var wire 32 C! BLOCK_SIZE [31:0] $end
    $var wire 32 B! WAYS [31:0] $end
    $var wire 32 :! DWIDTH [31:0] $end
    $var wire 1 4! clk $end
    $var wire 1 3 index_i [0:0] $end
    $var wire 3 D! offset [2:0] $end
    $var wire 2 ] replace_way [1:0] $end
    $var wire 2 ^ hit_way [1:0] $end
    $var wire 64 ? cache_line_i [63:0] $end
    $var wire 32 5! store_data [31:0] $end
    $var wire 3 7! funct3_i [2:0] $end
    $var wire 1 C replace_en $end
    $var wire 1 D store_en $end
    $var wire 192 _ set_o [191:0] $end
    $var wire 384 e data_array [383:0] $end
    $var wire 64 E temp [63:0] $end
   $upscope $end
   $scope module cache_tag_array $end
    $var wire 32 9! AWIDTH [31:0] $end
    $var wire 32 @! TAG_BITS [31:0] $end
    $var wire 32 A! INDEX_BITS [31:0] $end
    $var wire 32 ;! NUM_SETS [31:0] $end
    $var wire 32 B! OFFSET_BITS [31:0] $end
    $var wire 1 4! clk $end
    $var wire 1 B idle $end
    $var wire 10 4 tag_i [9:0] $end
    $var wire 1 3 index_i [0:0] $end
    $var wire 1 C replace_en $end
    $var wire 1 D store_en $end
    $var wire 1 \ hit $end
    $var wire 2 ^ hit_way_o [1:0] $end
    $var wire 2 ] replace_way_o [1:0] $end
    $var wire 2 7 replace_way_state [1:0] $end
    $var wire 14 6 replace_address [13:0] $end
    $var wire 32 B! WAYS [31:0] $end
    $var wire 10 q tag_array[0][0] [9:0] $end
    $var wire 10 r tag_array[0][1] [9:0] $end
    $var wire 10 s tag_array[0][2] [9:0] $end
    $var wire 10 t tag_array[1][0] [9:0] $end
    $var wire 10 u tag_array[1][1] [9:0] $end
    $var wire 10 v tag_array[1][2] [9:0] $end
    $var wire 2 w valid_array[0][0] [1:0] $end
    $var wire 2 x valid_array[0][1] [1:0] $end
    $var wire 2 y valid_array[0][2] [1:0] $end
    $var wire 2 z valid_array[1][0] [1:0] $end
    $var wire 2 { valid_array[1][1] [1:0] $end
    $var wire 2 | valid_array[1][2] [1:0] $end
    $var wire 2 } LRU_array[0][0] [1:0] $end
    $var wire 2 ~ LRU_array[0][1] [1:0] $end
    $var wire 2 !! LRU_array[0][2] [1:0] $end
    $var wire 2 "! LRU_array[1][0] [1:0] $end
    $var wire 2 #! LRU_array[1][1] [1:0] $end
    $var wire 2 $! LRU_array[1][2] [1:0] $end
    $var wire 2 ^ hit_way [1:0] $end
    $var wire 2 %! empty_way [1:0] $end
    $var wire 1 &! empty_found $end
    $var wire 2 '! oldest_way [1:0] $end
    $var wire 2 ^ reset_way [1:0] $end
    $var wire 2 ] replace_way [1:0] $end
    $scope module unnamedblk1 $end
     $var wire 32 E! i [31:0] $end
    $upscope $end
    $scope module unnamedblk2 $end
     $var wire 32 E! i [31:0] $end
    $upscope $end
    $scope module unnamedblk3 $end
     $var wire 32 E! i [31:0] $end
    $upscope $end
    $scope module unnamedblk4 $end
     $var wire 32 (! i [31:0] $end
    $upscope $end
    $scope module unnamedblk5 $end
     $var wire 32 )! i [31:0] $end
    $upscope $end
   $upscope $end
   $scope module memory1 $end
    $var wire 32 :! AWIDTH [31:0] $end
    $var wire 32 :! DWIDTH [31:0] $end
    $var wire 32 F! BASE_ADDR [31:0] $end
    $var wire 32 @! MEM_DELAY [31:0] $end
    $var wire 1 4! clk $end
    $var wire 1 # rst $end
    $var wire 32 *! addr_i [31:0] $end
    $var wire 32 G addr_dat [31:0] $end
    $var wire 64 Z data_dat [63:0] $end
    $var wire 1 = read_en_i $end
    $var wire 1 = read_en_dat $end
    $var wire 1 > write_en_dat $end
    $var wire 3 7! funct3_i [2:0] $end
    $var wire 1 A request $end
    $var wire 1 Y write_finished $end
    $var wire 1 X ready $end
    $var wire 32 H data_o [31:0] $end
    $var wire 64 ? data_dat_o [63:0] $end
    $var wire 32 G! MEM_BYTES [31:0] $end
    $var wire 4 +! delay [3:0] $end
    $var wire 32 ,! address [31:0] $end
    $var wire 32 I address_dat [31:0] $end
    $var wire 32 / i [31:0] $end
    $scope module unnamedblk1 $end
     $var wire 32 J i [31:0] $end
    $upscope $end
    $scope module unnamedblk2 $end
     $var wire 32 -! i [31:0] $end
    $upscope $end
   $upscope $end
  $upscope $end
 $upscope $end
 $scope module fifo_buffer $end
  $var wire 32 C! DEPTH [31:0] $end
  $var wire 32 :! DWIDTH [31:0] $end
  $var wire 32 .! push_data [31:0] $end
  $var wire 2 /! push_pop [1:0] $end
  $var wire 1 0! reset $end
  $var wire 1 1! clk $end
  $var wire 32 2! pop_data [31:0] $end
  $var wire 1 3! buffer_full $end
  $var wire 32 ?! NO_OP [31:0] $end
  $var wire 32 =! PUSH [31:0] $end
  $var wire 32 H! POP [31:0] $end
  $var wire 32 K fifo_buffer[0] [31:0] $end
  $var wire 32 L fifo_buffer[1] [31:0] $end
  $var wire 32 M fifo_buffer[2] [31:0] $end
  $var wire 32 N fifo_buffer[3] [31:0] $end
  $var wire 32 O fifo_buffer[4] [31:0] $end
  $var wire 32 P fifo_buffer[5] [31:0] $end
  $var wire 32 Q fifo_buffer[6] [31:0] $end
  $var wire 32 R fifo_buffer[7] [31:0] $end
  $var wire 32 B! POINTER_BITS [31:0] $end
  $var wire 4 S head [3:0] $end
  $var wire 4 T tail [3:0] $end
  $var wire 1 U empty $end
 $upscope $end
$enddefinitions $end


#0
1#
b0000000001011110000011 $
b0000000000011010000011 %
b0000000010011000000011 &
b0000000001011110100011 '
b0000000000011010000011 (
b0000000010011000000011 )
b0000000100011110000011 *
b0000000001011010100011 +
b0000000010011000000011 ,
b0000000000000000000011 -
b0000000000000000000000 .
b00000000000000000000000010010011 /
b00000000000000 0
b00000000000000000000000000000000 1
b000 2
03
b0000000000 4
b00000000000000 5
b00000000000000 6
b00 7
18
09
b00000000000000 :
1;
0<
1=
0>
b1100101111111101111011111001000011001011111111011110111110010000 ?
0A
1B
0C
0D
b0000000000000000000000000000000000000000000000000000000000000000 E
b00000000000000000000000000000000 G
b11011110101011011011111011101111 H
b00000000000000000000000000000000 I
b00000000000000000000000000001000 J
b00000000000000000000000000000000 K
b00000000000000000000000000000000 L
b00000000000000000000000000000000 M
b00000000000000000000000000000000 N
b00000000000000000000000000000000 O
b00000000000000000000000000000000 P
b00000000000000000000000000000000 Q
b00000000000000000000000000000000 R
b0000 S
b0000 T
1U
0V
0W
0X
0Y
b0000000000000000000000000000000000000000000000000000000000000000 Z
0\
b10 ]
b00 ^
b000000000000000000000000000000000000000000000000000000000000000000000000000000000000000000000000000000000000000000000000000000000000000000000000000000000000000000000000000000000000000000000000 _
b000000000000000000000000000000000000000000000000000000000000000000000000000000000000000000000000000000000000000000000000000000000000000000000000000000000000000000000000000000000000000000000000000000000000000000000000000000000000000000000000000000000000000000000000000000000000000000000000000000000000000000000000000000000000000000000000000000000000000000000000000000000000000000000000 e
b0000000000 q
b0000000000 r
b0000000000 s
b0000000000 t
b0000000000 u
b0000000000 v
b00 w
b00 x
b00 y
b00 z
b00 {
b00 |
b00 }
b00 ~
b00 !!
b00 "!
b00 #!
b00 $!
b10 %!
1&!
b10 '!
b00000000000000000000000000000000 (!
b00000000000000000000000000000000 )!
b00000000000000000000000000000000 *!
b0000 +!
b11111111000000000000000000000000 ,!
b00000000000000000000000000000000 -!
b00000000000000000000000000000000 .!
b00 /!
00!
01!
b00000000000000000000000000000000 2!
03!
04!
b00000000000000000000000000000000 5!
b0000011 6!
b011 7!
b00000000000000000000000000000000 8!
b00000000000000000000000000001110 9!
b00000000000000000000000000100000 :!
b00000000000000000000000000000010 ;!
b00000000000000000000000000000011 <!
b00000000000000000000000000000001 =!
b00000000000000000000000000001010 >!
b00000000000000000000000000000000 ?!
b00000000000000000000000000001010 @!
b00000000000000000000000000000001 A!
b00000000000000000000000000000011 B!
b00000000000000000000000000001000 C!
b000 D!
b00000000000000000000000000000011 E!
b00000001000000000000000000000000 F!
b00000000000010011100101000000000 G!
b00000000000000000000000000000010 H!
b00000000000000000000000000000000 I!
b0110011 J!
b0010011 K!
b0000011 L!
b0100011 M!
b1100011 N!
b1100111 O!
b1101111 P!
b0110111 Q!
b0010111 R!
b0000 S!
b0001 T!
b0010 U!
b0011 V!
b0100 W!
b0101 X!
b0110 Y!
b0111 Z!
b1000 [!
b1001 \!
b1010 ]!
b1111 ^!
#1
1A
1V
14!
#2
04!
#3
b0001 +!
14!
#4
04!
#5
b0010 +!
14!
#6
04!
#7
b0011 +!
14!
#8
04!
#9
b0100 +!
14!
#10
04!
#11
b0101 +!
14!
#12
04!
#13
b0110 +!
14!
#14
04!
#15
b0111 +!
14!
#16
04!
#17
b1000 +!
14!
#18
04!
#19
b1001 +!
14!
#20
04!
#21
b1010 +!
14!
#22
04!
#23
0;
1C
1X
b0000 +!
14!
#24
04!
#25
08
19
0A
0B
0C
b1100101111111101111011111001000000000000000000000000000000000000 E
0V
0X
1\
b01 ]
b10 ^
b000000000000000000000000000000000000000000000000000000000000000000000000000000000000000000000000000000000000000000000000000000001100101111111101111011111001000011001011111111011110111110010000 _
b000000000000000000000000000000000000000000000000000000000000000000000000000000000000000000000000000000000000000000000000000000001100101111111101111011111001000011001011111111011110111110010000000000000000000000000000000000000000000000000000000000000000000000000000000000000000000000000000000000000000000000000000000000000000000000000000000000000000000000000000000000000000000000000000 e
b01 y
b01 %!
b00000000000000000000000000000011 )!
b0001 +!
14!
b11001011111111011110111110010000 8!
#26
04!
#27
b00000000101111 0
b00000000000000000000000000000001 1
b111 2
13
b0000000010 4
b00000000101000 5
b00000000001000 6
18
09
1;
1B
b0000000000000000000000000000000000000000000000000000000000000000 E
0\
b10 ]
b00 ^
b000000000000000000000000000000000000000000000000000000000000000000000000000000000000000000000000000000000000000000000000000000000000000000000000000000000000000000000000000000000000000000000000 _
b10 %!
b00000000000000000000000000000011 (!
b00000000000000000000000000101111 *!
b0000 +!
b11111111000000000000000000101111 ,!
14!
b00000000000000000000000000000000 8!
#28
04!
#29
b00000000101000 :
1A
b00000000000000000000000000101000 G
b00000000000000000000000000101000 I
1V
14!
#30
04!
#31
b0001 +!
14!
#32
04!
#33
b0010 +!
14!
#34
04!
#35
b0011 +!
14!
#36
04!
#37
b0100 +!
14!
#38
04!
#39
b0101 +!
14!
#40
04!
#41
b0110 +!
14!
#42
04!
#43
b0111 +!
14!
#44
04!
#45
b1000 +!
14!
#46
04!
#47
b1001 +!
14!
#48
04!
#49
b1010 +!
14!
#50
04!
#51
0;
1C
1X
b0000 +!
14!
#52
04!
#53
08
19
0A
0B
0C
b1100101111111101111011111001000000000000000000000000000000000000 E
0V
0X
1\
b01 ]
b10 ^
b000000000000000000000000000000000000000000000000000000000000000000000000000000000000000000000000000000000000000000000000000000001100101111111101111011111001000011001011111111011110111110010000 _
b000000000000000000000000000000000000000000000000000000000000000000000000000000000000000000000000000000000000000000000000000000001100101111111101111011111001000011001011111111011110111110010000000000000000000000000000000000000000000000000000000000000000000000000000000000000000000000000000000000000000000000000000000000001100101111111101111011111001000011001011111111011110111110010000 e
b0000000010 v
b01 |
b01 %!
b0001 +!
14!
b00000000000000000000000011001011 8!
#54
04!
#55
b00000000001101 0
b00000000000000000000000000000010 1
b101 2
b0000000000 4
b00000000001000 5
18
09
1;
1B
b0000000000000000000000000000000000000000000000000000000000000000 E
0\
b00 ^
b00000000000000000000000000001101 *!
b0000 +!
b11111111000000000000000000001101 ,!
14!
b10010000000000000000000000000000 8!
#56
04!
#57
b00000000001000 :
1A
b00000000000000000000000000001000 G
b00000000000000000000000000001000 I
1V
14!
#58
04!
#59
b0001 +!
14!
#60
04!
#61
b0010 +!
14!
#62
04!
#63
b0011 +!
14!
#64
04!
#65
b0100 +!
14!
#66
04!
#67
b0101 +!
14!
#68
04!
#69
b0110 +!
14!
#70
04!
#71
b0111 +!
14!
#72
04!
#73
b1000 +!
14!
#74
04!
#75
b1001 +!
14!
#76
04!
#77
b1010 +!
14!
#78
04!
#79
0;
1C
1X
b0000 +!
14!
#80
04!
#81
08
19
0A
0B
0C
b1100101111111101111011111001000000000000000000000000000000000000 E
0V
0X
1\
b00 ]
b01 ^
b000000000000000000000000000000000000000000000000000000000000000011001011111111011110111110010000110010111111110111101111100100001100101111111101111011111001000011001011111111011110111110010000 _
b000000000000000000000000000000000000000000000000000000000000000000000000000000000000000000000000000000000000000000000000000000001100101111111101111011111001000011001011111111011110111110010000000000000000000000000000000000000000000000000000000000000000000011001011111111011110111110010000110010111111110111101111100100001100101111111101111011111001000011001011111111011110111110010000 e
b01 {
b01 $!
b00 %!
b0001 +!
14!
b00000000110010111111110111101111 8!
#82
04!
#83
b00000001001100 0
b00000000000000000000000000000011 1
b100 2
b0000000100 4
b00000001001000 5
18
09
1;
1B
b0000000000000000000000000000000000000000000000000000000000000000 E
0\
b00 ^
b00000000000000000000000001001100 *!
b0000 +!
b11111111000000000000000001001100 ,!
14!
b00000000000000000000000000000000 8!
#84
04!
#85
b00000001001000 :
1A
b00000000000000000000000001001000 G
b00000000000000000000000001001000 I
1V
14!
#86
04!
#87
b0001 +!
14!
#88
04!
#89
b0010 +!
14!
#90
04!
#91
b0011 +!
14!
#92
04!
#93
b0100 +!
14!
#94
04!
#95
b0101 +!
14!
#96
04!
#97
b0110 +!
14!
#98
04!
#99
b0111 +!
14!
