cache.vcd
$version Generated by VerilatedVcd $end
$timescale 1ps $end
 $scope module $unit $end
  $var wire 32 <! ZERO [31:0] $end
  $var wire 7 =! OP_R [6:0] $end
  $var wire 7 >! OP_I [6:0] $end
  $var wire 7 ?! OP_LOAD [6:0] $end
  $var wire 7 @! OP_STORE [6:0] $end
  $var wire 7 A! OP_BRANCH [6:0] $end
  $var wire 7 B! OP_JALR [6:0] $end
  $var wire 7 C! OP_JAL [6:0] $end
  $var wire 7 D! OP_LUI [6:0] $end
  $var wire 7 E! OP_AUIPC [6:0] $end
  $var wire 4 F! ALU_ADD [3:0] $end
  $var wire 4 G! ALU_SUB [3:0] $end
  $var wire 4 H! ALU_AND [3:0] $end
  $var wire 4 I! ALU_OR [3:0] $end
  $var wire 4 J! ALU_XOR [3:0] $end
  $var wire 4 K! ALU_SLT [3:0] $end
  $var wire 4 L! ALU_SLL [3:0] $end
  $var wire 4 M! ALU_SRL [3:0] $end
  $var wire 4 N! ALU_SRA [3:0] $end
  $var wire 4 O! ALU_LUI [3:0] $end
  $var wire 4 P! ALU_BRANCH [3:0] $end
  $var wire 4 Q! ALU_NOP [3:0] $end
 $upscope $end
 $scope module cache_tb $end
  $var wire 1 $! clk $end
  $var wire 1 $ reset $end
  $var wire 32 *! AWIDTH [31:0] $end
  $var wire 32 +! DWIDTH [31:0] $end
  $var wire 32 ,! NUM_SETS [31:0] $end
  $var wire 32 -! OFFSET_BITS [31:0] $end
  $var wire 32 .! INDEX_BITS [31:0] $end
  $var wire 32 /! TAG_BITS [31:0] $end
  $var wire 14 1 address [13:0] $end
  $var wire 32 %! store_data [31:0] $end
  $var wire 7 &! opcode_i [6:0] $end
  $var wire 3 '! funct3_i [2:0] $end
  $var wire 32 (! data_out [31:0] $end
  $var wire 1 8 stall $end
  $var wire 1 9 data_valid $end
  $var wire 14 % test_addresses[0] [13:0] $end
  $var wire 14 & test_addresses[1] [13:0] $end
  $var wire 14 ' test_addresses[2] [13:0] $end
  $var wire 14 ( test_addresses[3] [13:0] $end
  $var wire 14 ) test_addresses[4] [13:0] $end
  $var wire 14 * test_addresses[5] [13:0] $end
  $var wire 14 + test_addresses[6] [13:0] $end
  $var wire 14 , test_addresses[7] [13:0] $end
  $var wire 14 - test_addresses[8] [13:0] $end
  $var wire 14 . test_addresses[9] [13:0] $end
  $var wire 14 / test_addresses[10] [13:0] $end
  $var wire 32 2 i [31:0] $end
  $scope module cache $end
   $var wire 32 *! AWIDTH [31:0] $end
   $var wire 32 +! DWIDTH [31:0] $end
   $var wire 1 $! clk $end
   $var wire 1 $ reset $end
   $var wire 14 1 address [13:0] $end
   $var wire 32 %! store_data [31:0] $end
   $var wire 7 &! opcode_i [6:0] $end
   $var wire 3 '! funct3_i [2:0] $end
   $var wire 32 (! data_out [31:0] $end
   $var wire 1 8 stall $end
   $var wire 1 9 data_valid $end
   $var wire 32 ,! NUM_SETS [31:0] $end
   $var wire 32 -! OFFSET_BITS [31:0] $end
   $var wire 32 .! INDEX_BITS [31:0] $end
   $var wire 32 /! TAG_BITS [31:0] $end
   $var wire 3 3 offset [2:0] $end
   $var wire 1 4 index [0:0] $end
   $var wire 10 5 tag [9:0] $end
   $var wire 14 6 memory_address [13:0] $end
   $var wire 32 0! CACHE [31:0] $end
   $var wire 32 .! MAIN_MEMORY [31:0] $end
   $var wire 1 = curr_state $end
   $var wire 1 : next_state $end
   $var wire 1 1! read_en $end
   $var wire 1 2! write_en $end
   $var wire 64 > mem_out [63:0] $end
   $var wire 1 1! ready $end
   $var wire 1 @ hit $end
   $var wire 1 ; idle $end
   $var wire 2 A replace_way [1:0] $end
   $var wire 2 B hit_way [1:0] $end
   $var wire 1 < replace_en $end
   $var wire 192 C set [191:0] $end
   $scope module cache_data_array $end
    $var wire 32 3! TAG_BITS [31:0] $end
    $var wire 32 4! INDEX_BITS [31:0] $end
    $var wire 32 ,! NUM_SETS [31:0] $end
    $var wire 32 5! BLOCK_SIZE [31:0] $end
    $var wire 32 6! WAYS [31:0] $end
    $var wire 1 $! clk $end
    $var wire 1 4 index_i [0:0] $end
    $var wire 2 A replace_way [1:0] $end
    $var wire 64 > cache_line_i [63:0] $end
    $var wire 1 < replace_en $end
    $var wire 192 C set_o [191:0] $end
    $var wire 384 I data_array [383:0] $end
   $upscope $end
   $scope module cache_tag_array $end
    $var wire 32 3! TAG_BITS [31:0] $end
    $var wire 32 ,! INDEX_BITS [31:0] $end
    $var wire 32 7! NUM_SETS [31:0] $end
    $var wire 1 $! clk $end
    $var wire 1 ; idle $end
    $var wire 10 5 tag_i [9:0] $end
    $var wire 2 7 index_i [1:0] $end
    $var wire 1 < replace_en $end
    $var wire 1 @ hit $end
    $var wire 2 B hit_way_o [1:0] $end
    $var wire 2 A replace_way_o [1:0] $end
    $var wire 32 6! WAYS [31:0] $end
    $var wire 10 U tag_array[0][0] [9:0] $end
    $var wire 10 V tag_array[0][1] [9:0] $end
    $var wire 10 W tag_array[0][2] [9:0] $end
    $var wire 10 X tag_array[1][0] [9:0] $end
    $var wire 10 Y tag_array[1][1] [9:0] $end
    $var wire 10 Z tag_array[1][2] [9:0] $end
    $var wire 10 [ tag_array[2][0] [9:0] $end
    $var wire 10 \ tag_array[2][1] [9:0] $end
    $var wire 10 ] tag_array[2][2] [9:0] $end
    $var wire 10 ^ tag_array[3][0] [9:0] $end
    $var wire 10 _ tag_array[3][1] [9:0] $end
    $var wire 10 ` tag_array[3][2] [9:0] $end
    $var wire 1 a valid_array[0][0] $end
    $var wire 1 b valid_array[0][1] $end
    $var wire 1 c valid_array[0][2] $end
    $var wire 1 d valid_array[1][0] $end
    $var wire 1 e valid_array[1][1] $end
    $var wire 1 f valid_array[1][2] $end
    $var wire 1 g valid_array[2][0] $end
    $var wire 1 h valid_array[2][1] $end
    $var wire 1 i valid_array[2][2] $end
    $var wire 1 j valid_array[3][0] $end
    $var wire 1 k valid_array[3][1] $end
    $var wire 1 l valid_array[3][2] $end
    $var wire 2 m LRU_array[0][0] [1:0] $end
    $var wire 2 n LRU_array[0][1] [1:0] $end
    $var wire 2 o LRU_array[0][2] [1:0] $end
    $var wire 2 p LRU_array[1][0] [1:0] $end
    $var wire 2 q LRU_array[1][1] [1:0] $end
    $var wire 2 r LRU_array[1][2] [1:0] $end
    $var wire 2 s LRU_array[2][0] [1:0] $end
    $var wire 2 t LRU_array[2][1] [1:0] $end
    $var wire 2 u LRU_array[2][2] [1:0] $end
    $var wire 2 v LRU_array[3][0] [1:0] $end
    $var wire 2 w LRU_array[3][1] [1:0] $end
    $var wire 2 x LRU_array[3][2] [1:0] $end
    $var wire 2 B hit_way [1:0] $end
    $var wire 2 y empty_way [1:0] $end
    $var wire 1 z empty_found $end
    $var wire 2 { oldest_way [1:0] $end
    $var wire 2 # reset_way [1:0] $end
    $var wire 2 A replace_way [1:0] $end
    $scope module unnamedblk1 $end
     $var wire 32 8! i [31:0] $end
    $upscope $end
    $scope module unnamedblk2 $end
     $var wire 32 8! i [31:0] $end
    $upscope $end
    $scope module unnamedblk3 $end
     $var wire 32 8! i [31:0] $end
    $upscope $end
    $scope module unnamedblk4 $end
     $var wire 32 | i [31:0] $end
    $upscope $end
   $upscope $end
   $scope module memory1 $end
    $var wire 32 +! AWIDTH [31:0] $end
    $var wire 32 +! DWIDTH [31:0] $end
    $var wire 32 9! BASE_ADDR [31:0] $end
    $var wire 1 $! clk $end
    $var wire 1 $ rst $end
    $var wire 32 } addr_i [31:0] $end
    $var wire 32 ~ addr_dat [31:0] $end
    $var wire 32 %! data_dat [31:0] $end
    $var wire 1 1! read_en_i $end
    $var wire 1 1! read_en_dat $end
    $var wire 1 2! write_en_dat $end
    $var wire 3 '! funct3_i [2:0] $end
    $var wire 1 1! ready $end
    $var wire 32 !! data_o [31:0] $end
    $var wire 64 > data_dat_o [63:0] $end
    $var wire 2 )! size_encoded [1:0] $end
    $var wire 32 :! MEM_BYTES [31:0] $end
    $var wire 32 "! address [31:0] $end
    $var wire 32 #! address_dat [31:0] $end
    $var wire 32 0 i [31:0] $end
    $scope module unnamedblk1 $end
     $var wire 32 ;! i [31:0] $end
    $upscope $end
   $upscope $end
  $upscope $end
 $upscope $end
$enddefinitions $end


#0
b00 #
1$
b00000000101111 %
b00000000001101 &
b00000001001100 '
b00000000101110 (
b00000000001100 )
b00000001101100 *
b00000001001100 +
b00000000001100 ,
b00000000101110 -
b00000000000000 .
b00000000000000 /
b00000000000000000000000010010011 0
b00000000000000 1
b00000000000000000000000000000000 2
b000 3
04
b0000000000 5
b00000000000000 6
b00 7
18
09
1:
1;
0<
0=
b1100101111111101111011111001000011001011111111011110111110010000 >
0@
b10 A
b00 B
b000000000000000000000000000000000000000000000000000000000000000000000000000000000000000000000000000000000000000000000000000000000000000000000000000000000000000000000000000000000000000000000000 C
b000000000000000000000000000000000000000000000000000000000000000000000000000000000000000000000000000000000000000000000000000000000000000000000000000000000000000000000000000000000000000000000000000000000000000000000000000000000000000000000000000000000000000000000000000000000000000000000000000000000000000000000000000000000000000000000000000000000000000000000000000000000000000000000000 I
b0000000000 U
b0000000000 V
b0000000000 W
b0000000000 X
b0000000000 Y
b0000000000 Z
b0000000000 [
b0000000000 \
b0000000000 ]
b0000000000 ^
b0000000000 _
b0000000000 `
0a
0b
0c
0d
0e
0f
0g
0h
0i
0j
0k
0l
b00 m
b00 n
b00 o
b00 p
b00 q
b00 r
b00 s
b00 t
b00 u
b00 v
b00 w
b00 x
b10 y
1z
b10 {
b00000000000000000000000000000000 |
b00000000000000000000000000000000 }
b00000000000000000000000000000000 ~
b11011110101011011011111011101111 !!
b11111111000000000000000000000000 "!
b00000000000000000000000000000000 #!
0$!
b00000000000000000000000000001010 %!
b0000011 &!
b011 '!
b00000000000000000000000000000000 (!
b00 )!
b00000000000000000000000000001110 *!
b00000000000000000000000000100000 +!
b00000000000000000000000000000010 ,!
b00000000000000000000000000000011 -!
b00000000000000000000000000000001 .!
b00000000000000000000000000001010 /!
b00000000000000000000000000000000 0!
11!
02!
b00000000000000000000000000001010 3!
b00000000000000000000000000000001 4!
b00000000000000000000000000001000 5!
b00000000000000000000000000000011 6!
b00000000000000000000000000000100 7!
b00000000000000000000000000000011 8!
b00000001000000000000000000000000 9!
b00000000000000001001110010100000 :!
b00000000000000000000000000001000 ;!
b00000000000000000000000000000000 <!
b0110011 =!
b0010011 >!
b0000011 ?!
b0100011 @!
b1100011 A!
b1100111 B!
b1101111 C!
b0110111 D!
b0010111 E!
b0000 F!
b0001 G!
b0010 H!
b0011 I!
b0100 J!
b0101 K!
b0110 L!
b0111 M!
b1000 N!
b1001 O!
b1010 P!
b1111 Q!
#1
0:
1<
1=
1$!
#2
0$!
#3
08
19
0;
0<
0=
1@
b01 A
b10 B
b000000000000000000000000000000000000000000000000000000000000000000000000000000000000000000000000000000000000000000000000000000001100101111111101111011111001000011001011111111011110111110010000 C
b000000000000000000000000000000000000000000000000000000000000000000000000000000000000000000000000000000000000000000000000000000001100101111111101111011111001000011001011111111011110111110010000000000000000000000000000000000000000000000000000000000000000000000000000000000000000000000000000000000000000000000000000000000000000000000000000000000000000000000000000000000000000000000000000 I
1c
b01 y
1$!
b11001011111111011110111110010000 (!
#4
0$!
#5
b00000000101111 1
b00000000000000000000000000000001 2
b111 3
14
b0000000010 5
b00000000101000 6
b01 7
18
09
1:
1;
0@
b10 A
b00 B
b000000000000000000000000000000000000000000000000000000000000000000000000000000000000000000000000000000000000000000000000000000000000000000000000000000000000000000000000000000000000000000000000 C
b01 n
b01 o
b10 y
b00000000000000000000000000000011 |
b00000000000000000000000000101111 }
b00000000000000000000000000101000 ~
b11111111000000000000000000101111 "!
b00000000000000000000000000101000 #!
1$!
b00000000000000000000000000000000 (!
#6
0$!
#7
0:
1<
1=
1$!
#8
0$!
#9
08
19
0;
0<
0=
1@
b01 A
b10 B
b000000000000000000000000000000000000000000000000000000000000000000000000000000000000000000000000000000000000000000000000000000001100101111111101111011111001000011001011111111011110111110010000 C
b000000000000000000000000000000000000000000000000000000000000000000000000000000000000000000000000000000000000000000000000000000001100101111111101111011111001000011001011111111011110111110010000000000000000000000000000000000000000000000000000000000000000000000000000000000000000000000000000000000000000000000000000000000001100101111111101111011111001000011001011111111011110111110010000 I
b0000000010 Z
1f
b01 y
1$!
b00000000000000000000000011001011 (!
#10
0$!
#11
b00000000001101 1
b00000000000000000000000000000010 2
b101 3
b0000000000 5
b00000000001000 6
18
09
1:
1;
0@
b00 B
b01 q
b01 r
b00000000000000000000000000001101 }
b00000000000000000000000000001000 ~
b11111111000000000000000000001101 "!
b00000000000000000000000000001000 #!
1$!
b10010000000000000000000000000000 (!
#12
0$!
#13
0:
1<
1=
1$!
#14
0$!
#15
08
19
0;
0<
0=
1@
b00 A
b01 B
b000000000000000000000000000000000000000000000000000000000000000011001011111111011110111110010000110010111111110111101111100100001100101111111101111011111001000011001011111111011110111110010000 C
b000000000000000000000000000000000000000000000000000000000000000000000000000000000000000000000000000000000000000000000000000000001100101111111101111011111001000011001011111111011110111110010000000000000000000000000000000000000000000000000000000000000000000011001011111111011110111110010000110010111111110111101111100100001100101111111101111011111001000011001011111111011110111110010000 I
1e
b00 y
1$!
b00000000110010111111110111101111 (!
#16
0$!
#17
b00000001001100 1
b00000000000000000000000000000011 2
b100 3
b0000000100 5
b00000001001000 6
18
09
1:
1;
0@
b00 B
b10 q
b10 r
b00000000000000000000000001001100 }
b00000000000000000000000001001000 ~
b11111111000000000000000001001100 "!
b00000000000000000000000001001000 #!
1$!
b00000000000000000000000000000000 (!
#18
0$!
#19
0:
1<
1=
1$!
#20
0$!
#21
08
19
0;
0<
0=
1@
b10 A
b110010111111110111101111100100001100101111111101111011111001000011001011111111011110111110010000110010111111110111101111100100001100101111111101111011111001000011001011111111011110111110010000 C
b000000000000000000000000000000000000000000000000000000000000000000000000000000000000000000000000000000000000000000000000000000001100101111111101111011111001000011001011111111011110111110010000110010111111110111101111100100001100101111111101111011111001000011001011111111011110111110010000110010111111110111101111100100001100101111111101111011111001000011001011111111011110111110010000 I
b0000000100 X
1d
0z
1$!
b11001011111111011110111110010000 (!
#22
0$!
#23
b00000000101110 1
b00000000000000000000000000000100 2
b110 3
b0000000010 5
b00000000101000 6
b10 B
b00000000000000000000000000101110 }
b00000000000000000000000000101000 ~
b11111111000000000000000000101110 "!
b00000000000000000000000000101000 #!
1$!
b11101111100100001100101111111101 (!
#24
0$!
#25
b00000000001100 1
b00000000000000000000000000000101 2
b100 3
b0000000000 5
b00000000001000 6
b01 B
b00000000000000000000000000001100 }
b00000000000000000000000000001000 ~
b11111111000000000000000000001100 "!
b00000000000000000000000000001000 #!
1$!
b11001011111111011110111110010000 (!
#26
0$!
#27
b00000001101100 1
b00000000000000000000000000000110 2
b0000000110 5
b00000001101000 6
18
09
1:
1;
0@
b00 B
b00000000000000000000000001101100 }
b00000000000000000000000001101000 ~
b11111111000000000000000001101100 "!
b00000000000000000000000001101000 #!
1$!
#28
0$!
#29
0:
1<
1=
1$!
#30
0$!
#31
08
19
0;
0<
0=
1@
b10 B
b0000000110 Z
1$!
#32
0$!
#33
b00000001001100 1
b00000000000000000000000000000111 2
b0000000100 5
b00000001001000 6
b00 B
b00000000000000000000000001001100 }
b00000000000000000000000001001000 ~
b11111111000000000000000001001100 "!
b00000000000000000000000001001000 #!
1$!
#34
0$!
#35
b00000000001100 1
b00000000000000000000000000001000 2
b0000000000 5
b00000000001000 6
b01 B
b00000000000000000000000000001100 }
b00000000000000000000000000001000 ~
b11111111000000000000000000001100 "!
b00000000000000000000000000001000 #!
1$!
#36
0$!
#37
b00000000101110 1
b00000000000000000000000000001001 2
b110 3
b0000000010 5
b00000000101000 6
18
09
1:
1;
0@
b00 B
b00000000000000000000000000101110 }
b00000000000000000000000000101000 ~
b11111111000000000000000000101110 "!
b00000000000000000000000000101000 #!
1$!
b11101111100100001100101111111101 (!
#38
0$!
#39
0:
1<
1=
1$!
#40
0$!
#41
08
19
0;
0<
0=
1@
b10 B
b0000000010 Z
1$!
#42
0$!
#43
b00000000000000 1
b00000000000000000000000000001010 2
b000 3
04
b0000000000 5
b00000000000000 6
b00 7
b01 A
b000000000000000000000000000000000000000000000000000000000000000000000000000000000000000000000000000000000000000000000000000000001100101111111101111011111001000011001011111111011110111110010000 C
b01 y
1z
b00000000000000000000000000000000 }
b00000000000000000000000000000000 ~
b11111111000000000000000000000000 "!
b00000000000000000000000000000000 #!
1$!
b11001011111111011110111110010000 (!
#44
0$!
#45
b00000000000000000000000000001011 2
b10 n
b10 o
1$!
#46
0$!
#47
b00000000000000000000000000001100 2
b11 n
b11 o
1$!
#48
0$!
#49
b00000000000000000000000000001101 2
b00 n
b00 o
1$!
#50
0$!
#51
b00000000000000000000000000001110 2
b01 n
b01 o
1$!
#52
0$!
#53
b00000000000000000000000000001111 2
b10 n
b10 o
1$!
#54
0$!
#55
b00000000000000000000000000010000 2
b11 n
b11 o
1$!
#56
0$!
#57
b00000000101111 1
b00000000000000000000000000010001 2
b111 3
14
b0000000010 5
b00000000101000 6
b01 7
b10 A
b110010111111110111101111100100001100101111111101111011111001000011001011111111011110111110010000110010111111110111101111100100001100101111111101111011111001000011001011111111011110111110010000 C
b00 n
b00 o
b00 y
0z
b00000000000000000000000000101111 }
b00000000000000000000000000101000 ~
b11111111000000000000000000101111 "!
b00000000000000000000000000101000 #!
1$!
b11111101111011111001000011001011 (!
#58
0$!
#59
b00000000001101 1
b00000000000000000000000000010010 2
b101 3
b0000000000 5
b00000000001000 6
b01 B
b00000000000000000000000000001101 }
b00000000000000000000000000001000 ~
b11111111000000000000000000001101 "!
b00000000000000000000000000001000 #!
1$!
b10010000110010111111110111101111 (!
#60
0$!
#61
b00000001001100 1
b00000000000000000000000000010011 2
b100 3
b0000000100 5
b00000001001000 6
b00 B
b00000000000000000000000001001100 }
b00000000000000000000000001001000 ~
b11111111000000000000000001001100 "!
b00000000000000000000000001001000 #!
1$!
b11001011111111011110111110010000 (!
#62
0$!
#63
b00000000101110 1
b00000000000000000000000000010100 2
b110 3
b0000000010 5
b00000000101000 6
b10 B
b00000000000000000000000000101110 }
b00000000000000000000000000101000 ~
b11111111000000000000000000101110 "!
b00000000000000000000000000101000 #!
1$!
b11101111100100001100101111111101 (!
#64
0$!
#65
b00000000001100 1
b00000000000000000000000000010101 2
b100 3
b0000000000 5
b00000000001000 6
b01 B
b00000000000000000000000000001100 }
b00000000000000000000000000001000 ~
b11111111000000000000000000001100 "!
b00000000000000000000000000001000 #!
1$!
b11001011111111011110111110010000 (!
#66
0$!
#67
b00000001101100 1
b00000000000000000000000000010110 2
b0000000110 5
b00000001101000 6
18
09
1:
1;
0@
b00 B
b00000000000000000000000001101100 }
b00000000000000000000000001101000 ~
b11111111000000000000000001101100 "!
b00000000000000000000000001101000 #!
1$!
#68
0$!
#69
0:
1<
1=
1$!
#70
0$!
#71
08
19
0;
0<
0=
1@
b10 B
b0000000110 Z
1$!
#72
0$!
#73
b00000001001100 1
b00000000000000000000000000010111 2
b0000000100 5
b00000001001000 6
b00 B
b00000000000000000000000001001100 }
b00000000000000000000000001001000 ~
b11111111000000000000000001001100 "!
b00000000000000000000000001001000 #!
1$!
#74
0$!
#75
b00000000001100 1
b00000000000000000000000000011000 2
b0000000000 5
b00000000001000 6
b01 B
b00000000000000000000000000001100 }
b00000000000000000000000000001000 ~
b11111111000000000000000000001100 "!
b00000000000000000000000000001000 #!
1$!
#76
0$!
#77
b00000000101110 1
b00000000000000000000000000011001 2
b110 3
b0000000010 5
b00000000101000 6
18
09
1:
1;
0@
b00 B
b00000000000000000000000000101110 }
b00000000000000000000000000101000 ~
b11111111000000000000000000101110 "!
b00000000000000000000000000101000 #!
1$!
b11101111100100001100101111111101 (!
#78
0$!
#79
0:
1<
1=
1$!
#80
0$!
#81
08
19
0;
0<
0=
1@
b10 B
b0000000010 Z
1$!
#82
0$!
#83
b00000000000000 1
b00000000000000000000000000011010 2
b000 3
04
b0000000000 5
b00000000000000 6
b00 7
b01 A
b000000000000000000000000000000000000000000000000000000000000000000000000000000000000000000000000000000000000000000000000000000001100101111111101111011111001000011001011111111011110111110010000 C
b01 y
1z
b00000000000000000000000000000000 }
b00000000000000000000000000000000 ~
b11111111000000000000000000000000 "!
b00000000000000000000000000000000 #!
1$!
b11001011111111011110111110010000 (!
#84
0$!
#85
b00000000000000000000000000011011 2
b01 n
b01 o
1$!
#86
0$!
#87
b00000000000000000000000000011100 2
b10 n
b10 o
1$!
#88
0$!
#89
b00000000000000000000000000011101 2
b11 n
b11 o
1$!
#90
0$!
#91
b00000000000000000000000000011110 2
b00 n
b00 o
1$!
#92
0$!
#93
b00000000000000000000000000011111 2
b01 n
b01 o
1$!
#94
0$!
#95
b00000000000000000000000000100000 2
b10 n
b10 o
1$!
#96
0$!
#97
b00000000101111 1
b00000000000000000000000000100001 2
b111 3
14
b0000000010 5
b00000000101000 6
b01 7
b10 A
b110010111111110111101111100100001100101111111101111011111001000011001011111111011110111110010000110010111111110111101111100100001100101111111101111011111001000011001011111111011110111110010000 C
b11 n
b11 o
b00 y
0z
b00000000000000000000000000101111 }
b00000000000000000000000000101000 ~
b11111111000000000000000000101111 "!
b00000000000000000000000000101000 #!
1$!
b11111101111011111001000011001011 (!
#98
0$!
#99
b00000000001101 1
b00000000000000000000000000100010 2
b101 3
b0000000000 5
b00000000001000 6
b01 B
b00000000000000000000000000001101 }
b00000000000000000000000000001000 ~
b11111111000000000000000000001101 "!
b00000000000000000000000000001000 #!
1$!
b10010000110010111111110111101111 (!
