cache.vcd
$version Generated by VerilatedVcd $end
$timescale 1ps $end
 $scope module $unit $end
  $var wire 32 i" ZERO [31:0] $end
  $var wire 7 j" OP_R [6:0] $end
  $var wire 7 k" OP_I [6:0] $end
  $var wire 7 l" OP_LOAD [6:0] $end
  $var wire 7 m" OP_STORE [6:0] $end
  $var wire 7 n" OP_BRANCH [6:0] $end
  $var wire 7 o" OP_JALR [6:0] $end
  $var wire 7 p" OP_JAL [6:0] $end
  $var wire 7 q" OP_LUI [6:0] $end
  $var wire 7 r" OP_AUIPC [6:0] $end
  $var wire 4 s" ALU_ADD [3:0] $end
  $var wire 4 t" ALU_SUB [3:0] $end
  $var wire 4 u" ALU_AND [3:0] $end
  $var wire 4 v" ALU_OR [3:0] $end
  $var wire 4 w" ALU_XOR [3:0] $end
  $var wire 4 x" ALU_SLT [3:0] $end
  $var wire 4 y" ALU_SLL [3:0] $end
  $var wire 4 z" ALU_SRL [3:0] $end
  $var wire 4 {" ALU_SRA [3:0] $end
  $var wire 4 |" ALU_LUI [3:0] $end
  $var wire 4 }" ALU_BRANCH [3:0] $end
  $var wire 4 ~" ALU_NOP [3:0] $end
 $upscope $end
 $scope module cache_tb $end
  $var wire 1 G" clk $end
  $var wire 1 % reset $end
  $var wire 32 S" AWIDTH [31:0] $end
  $var wire 32 T" DWIDTH [31:0] $end
  $var wire 32 U" NUM_SETS [31:0] $end
  $var wire 32 V" OFFSET_BITS [31:0] $end
  $var wire 32 W" INDEX_BITS [31:0] $end
  $var wire 32 X" TAG_BITS [31:0] $end
  $var wire 14 7 addr [13:0] $end
  $var wire 32 H" store_data [31:0] $end
  $var wire 7 I" opcode_i [6:0] $end
  $var wire 3 J" funct3_i [2:0] $end
  $var wire 32 @ data_out [31:0] $end
  $var wire 1 A stall $end
  $var wire 1 B data_valid $end
  $var wire 22 & test_addresses[0] [21:0] $end
  $var wire 22 ' test_addresses[1] [21:0] $end
  $var wire 22 ( test_addresses[2] [21:0] $end
  $var wire 22 ) test_addresses[3] [21:0] $end
  $var wire 22 * test_addresses[4] [21:0] $end
  $var wire 22 + test_addresses[5] [21:0] $end
  $var wire 22 , test_addresses[6] [21:0] $end
  $var wire 22 - test_addresses[7] [21:0] $end
  $var wire 22 . test_addresses[8] [21:0] $end
  $var wire 22 / test_addresses[9] [21:0] $end
  $var wire 22 0 test_addresses[10] [21:0] $end
  $var wire 22 1 test_addresses[11] [21:0] $end
  $var wire 22 2 test_addresses[12] [21:0] $end
  $var wire 22 3 test_addresses[13] [21:0] $end
  $var wire 22 4 test_addresses[14] [21:0] $end
  $var wire 22 5 test_addresses[15] [21:0] $end
  $var wire 32 8 i [31:0] $end
  $scope module cache $end
   $var wire 32 S" AWIDTH [31:0] $end
   $var wire 32 T" DWIDTH [31:0] $end
   $var wire 32 Y" BUFFER_DEPTH [31:0] $end
   $var wire 1 G" clk $end
   $var wire 1 % reset $end
   $var wire 14 7 addr [13:0] $end
   $var wire 32 H" store_data [31:0] $end
   $var wire 7 I" opcode_i [6:0] $end
   $var wire 3 J" funct3_i [2:0] $end
   $var wire 32 @ data_out [31:0] $end
   $var wire 1 B data_valid $end
   $var wire 1 A stall $end
   $var wire 32 V" OFFSET_BITS [31:0] $end
   $var wire 32 Z" HIT_FOUND [31:0] $end
   $var wire 32 W" WRITE_BACK [31:0] $end
   $var wire 32 [" READING [31:0] $end
   $var wire 1 K" mem_op $end
   $var wire 14 C mem_addr [13:0] $end
   $var wire 32 L" cache_hit_data [31:0] $end
   $var wire 1 D cache_data_valid $end
   $var wire 2 E memory_rq [1:0] $end
   $var wire 78 Z buffer_store [77:0] $end
   $var wire 1 F write_finished $end
   $var wire 1 M" hit_out $end
   $var wire 3 9 offset [2:0] $end
   $var wire 64 G mem_out [63:0] $end
   $var wire 1 I pop_en $end
   $var wire 2 ] mem_state [1:0] $end
   $var wire 1 ^ ready $end
   $var wire 1 J rd_rq $end
   $var wire 1 K drain_req $end
   $var wire 79 _ pop_data [78:0] $end
   $var wire 1 b pop_valid $end
   $var wire 1 c wb_buffer_found $end
   $var wire 4 d found_entry [3:0] $end
   $var wire 64 e found_buffer_data [63:0] $end
   $var wire 1 g drain_rq $end
   $var wire 1 h buffer_full $end
   $var wire 2 L buffer_ctrl [1:0] $end
   $var wire 78 M push_data [77:0] $end
   $var wire 14 : search_addr [13:0] $end
   $var wire 64 N" temp [63:0] $end
   $scope module cache_1 $end
    $var wire 32 S" AWIDTH [31:0] $end
    $var wire 32 T" DWIDTH [31:0] $end
    $var wire 1 G" clk $end
    $var wire 1 % reset $end
    $var wire 14 7 address [13:0] $end
    $var wire 32 H" store_data [31:0] $end
    $var wire 7 I" opcode_i [6:0] $end
    $var wire 3 J" funct3_i [2:0] $end
    $var wire 1 c wb_buffer_found $end
    $var wire 64 G mem_in [63:0] $end
    $var wire 1 F write_finished $end
    $var wire 1 ^ ready $end
    $var wire 2 E memory_rq [1:0] $end
    $var wire 14 C memory_address [13:0] $end
    $var wire 78 Z mem_store [77:0] $end
    $var wire 32 L" data_out [31:0] $end
    $var wire 1 A stall $end
    $var wire 1 D data_valid $end
    $var wire 1 M" hit_out $end
    $var wire 1 ; offset_out $end
    $var wire 32 U" NUM_SETS [31:0] $end
    $var wire 32 V" OFFSET_BITS [31:0] $end
    $var wire 32 W" INDEX_BITS [31:0] $end
    $var wire 32 X" TAG_BITS [31:0] $end
    $var wire 3 < offset [2:0] $end
    $var wire 1 = index [0:0] $end
    $var wire 10 > tag [9:0] $end
    $var wire 14 : read_address [13:0] $end
    $var wire 14 i replace_address [13:0] $end
    $var wire 32 Z" CACHE [31:0] $end
    $var wire 32 W" MAIN_MEMORY [31:0] $end
    $var wire 1 j curr_state $end
    $var wire 1 P next_state $end
    $var wire 32 Z" READING [31:0] $end
    $var wire 32 W" WRITE_BACK [31:0] $end
    $var wire 1 k curr_state_mem $end
    $var wire 1 Q next_state_mem $end
    $var wire 32 W" HIT [31:0] $end
    $var wire 32 Z" MISS [31:0] $end
    $var wire 1 l hit $end
    $var wire 1 R idle $end
    $var wire 3 m replace_way [2:0] $end
    $var wire 3 n hit_way [2:0] $end
    $var wire 2 ? replace_way_state [1:0] $end
    $var wire 1 S reset_search $end
    $var wire 1 T search_en $end
    $var wire 1 o search_done $end
    $var wire 1 U replace_en $end
    $var wire 1 V store_en $end
    $var wire 512 p set [511:0] $end
    $scope module cache_data_array $end
     $var wire 32 \" TAG_BITS [31:0] $end
     $var wire 32 ]" INDEX_BITS [31:0] $end
     $var wire 32 ^" OFFSET_BITS [31:0] $end
     $var wire 32 U" NUM_SETS [31:0] $end
     $var wire 32 Y" BLOCK_SIZE [31:0] $end
     $var wire 32 Y" WAYS [31:0] $end
     $var wire 32 T" DWIDTH [31:0] $end
     $var wire 1 G" clk $end
     $var wire 1 = index_i [0:0] $end
     $var wire 3 _" offset [2:0] $end
     $var wire 3 m replace_way [2:0] $end
     $var wire 3 n hit_way [2:0] $end
     $var wire 64 G cache_line_i [63:0] $end
     $var wire 32 H" store_data [31:0] $end
     $var wire 3 J" funct3_i [2:0] $end
     $var wire 1 U replace_en $end
     $var wire 1 V store_en $end
     $var wire 512 p set_o [511:0] $end
     $var wire 1024 "! data_array [1023:0] $end
     $var wire 64 P" temp [63:0] $end
    $upscope $end
    $scope module cache_tag_array $end
     $var wire 32 S" AWIDTH [31:0] $end
     $var wire 32 \" TAG_BITS [31:0] $end
     $var wire 32 ]" INDEX_BITS [31:0] $end
     $var wire 32 U" NUM_SETS [31:0] $end
     $var wire 32 ^" OFFSET_BITS [31:0] $end
     $var wire 32 `" LOOKUP_WIDTH [31:0] $end
     $var wire 1 G" clk $end
     $var wire 1 R idle $end
     $var wire 10 > tag_i [9:0] $end
     $var wire 1 = index_i [0:0] $end
     $var wire 1 U replace_en $end
     $var wire 1 V store_en $end
     $var wire 1 S reset_search $end
     $var wire 1 T search_en $end
     $var wire 1 l hit $end
     $var wire 1 o search_done $end
     $var wire 3 n hit_way_o [2:0] $end
     $var wire 3 m replace_way_o [2:0] $end
     $var wire 2 ? replace_way_state [1:0] $end
     $var wire 14 i replace_address [13:0] $end
     $var wire 32 Y" WAYS [31:0] $end
     $var wire 10 B! tag_array[0][0] [9:0] $end
     $var wire 10 C! tag_array[0][1] [9:0] $end
     $var wire 10 D! tag_array[0][2] [9:0] $end
     $var wire 10 E! tag_array[0][3] [9:0] $end
     $var wire 10 F! tag_array[0][4] [9:0] $end
     $var wire 10 G! tag_array[0][5] [9:0] $end
     $var wire 10 H! tag_array[0][6] [9:0] $end
     $var wire 10 I! tag_array[0][7] [9:0] $end
     $var wire 10 J! tag_array[1][0] [9:0] $end
     $var wire 10 K! tag_array[1][1] [9:0] $end
     $var wire 10 L! tag_array[1][2] [9:0] $end
     $var wire 10 M! tag_array[1][3] [9:0] $end
     $var wire 10 N! tag_array[1][4] [9:0] $end
     $var wire 10 O! tag_array[1][5] [9:0] $end
     $var wire 10 P! tag_array[1][6] [9:0] $end
     $var wire 10 Q! tag_array[1][7] [9:0] $end
     $var wire 2 R! valid_array[0][0] [1:0] $end
     $var wire 2 S! valid_array[0][1] [1:0] $end
     $var wire 2 T! valid_array[0][2] [1:0] $end
     $var wire 2 U! valid_array[0][3] [1:0] $end
     $var wire 2 V! valid_array[0][4] [1:0] $end
     $var wire 2 W! valid_array[0][5] [1:0] $end
     $var wire 2 X! valid_array[0][6] [1:0] $end
     $var wire 2 Y! valid_array[0][7] [1:0] $end
     $var wire 2 Z! valid_array[1][0] [1:0] $end
     $var wire 2 [! valid_array[1][1] [1:0] $end
     $var wire 2 \! valid_array[1][2] [1:0] $end
     $var wire 2 ]! valid_array[1][3] [1:0] $end
     $var wire 2 ^! valid_array[1][4] [1:0] $end
     $var wire 2 _! valid_array[1][5] [1:0] $end
     $var wire 2 `! valid_array[1][6] [1:0] $end
     $var wire 2 a! valid_array[1][7] [1:0] $end
     $var wire 3 b! LRU_array[0][0] [2:0] $end
     $var wire 3 c! LRU_array[0][1] [2:0] $end
     $var wire 3 d! LRU_array[0][2] [2:0] $end
     $var wire 3 e! LRU_array[0][3] [2:0] $end
     $var wire 3 f! LRU_array[0][4] [2:0] $end
     $var wire 3 g! LRU_array[0][5] [2:0] $end
     $var wire 3 h! LRU_array[0][6] [2:0] $end
     $var wire 3 i! LRU_array[0][7] [2:0] $end
     $var wire 3 j! LRU_array[1][0] [2:0] $end
     $var wire 3 k! LRU_array[1][1] [2:0] $end
     $var wire 3 l! LRU_array[1][2] [2:0] $end
     $var wire 3 m! LRU_array[1][3] [2:0] $end
     $var wire 3 n! LRU_array[1][4] [2:0] $end
     $var wire 3 o! LRU_array[1][5] [2:0] $end
     $var wire 3 p! LRU_array[1][6] [2:0] $end
     $var wire 3 q! LRU_array[1][7] [2:0] $end
     $var wire 3 n hit_way [2:0] $end
     $var wire 3 r! lookup_way [2:0] $end
     $var wire 1 s! current_idx $end
     $var wire 10 t! lookup_array[0] [9:0] $end
     $var wire 10 u! lookup_array[1] [9:0] $end
     $var wire 10 v! lookup_array[2] [9:0] $end
     $var wire 10 w! lookup_array[3] [9:0] $end
     $var wire 3 x! empty_way [2:0] $end
     $var wire 1 y! empty_found $end
     $var wire 3 z! oldest_way [2:0] $end
     $var wire 3 n reset_way [2:0] $end
     $var wire 3 m replace_way [2:0] $end
     $scope module unnamedblk1 $end
      $var wire 32 {! i [31:0] $end
     $upscope $end
     $scope module unnamedblk2 $end
      $var wire 32 a" i [31:0] $end
     $upscope $end
     $scope module unnamedblk3 $end
      $var wire 32 b" i [31:0] $end
     $upscope $end
     $scope module unnamedblk4 $end
      $var wire 32 b" i [31:0] $end
     $upscope $end
     $scope module unnamedblk5 $end
      $var wire 32 |! i [31:0] $end
     $upscope $end
     $scope module unnamedblk6 $end
      $var wire 32 }! i [31:0] $end
     $upscope $end
    $upscope $end
   $upscope $end
   $scope module memory1 $end
    $var wire 32 S" AWIDTH [31:0] $end
    $var wire 32 c" DWIDTH [31:0] $end
    $var wire 1 % reset $end
    $var wire 1 G" clk $end
    $var wire 14 C addr [13:0] $end
    $var wire 1 J rd_req $end
    $var wire 1 K drain_req $end
    $var wire 79 _ buffer_data [78:0] $end
    $var wire 1 b pop_valid $end
    $var wire 1 I pop_en $end
    $var wire 2 ] curr_state_out [1:0] $end
    $var wire 1 ^ ready_out $end
    $var wire 64 G data_out [63:0] $end
    $var wire 2 ] curr_state [1:0] $end
    $var wire 2 R" next_state [1:0] $end
    $var wire 1 ~! read_en $end
    $var wire 1 !" write_en $end
    $var wire 64 G mem_out [63:0] $end
    $var wire 1 ^ ready $end
    $var wire 1 "" write_finished $end
    $var wire 64 #" mem_store [63:0] $end
    $var wire 14 %" store_address [13:0] $end
    $var wire 1 &" request $end
    $var wire 14 W memory_address [13:0] $end
    $var wire 1 d" address $end
    $var wire 1 e" funct3_i $end
    $var wire 32 Z" IDLE [31:0] $end
    $var wire 32 W" READING [31:0] $end
    $var wire 32 [" POPPING [31:0] $end
    $var wire 32 V" WRITE_BACK [31:0] $end
    $scope module memory1 $end
     $var wire 32 T" AWIDTH [31:0] $end
     $var wire 32 T" DWIDTH [31:0] $end
     $var wire 32 f" BASE_ADDR [31:0] $end
     $var wire 32 \" MEM_DELAY [31:0] $end
     $var wire 1 G" clk $end
     $var wire 1 % rst $end
     $var wire 32 # addr_i [31:0] $end
     $var wire 32 X addr_dat [31:0] $end
     $var wire 64 #" data_dat [63:0] $end
     $var wire 1 ~! read_en_i $end
     $var wire 1 ~! read_en_dat $end
     $var wire 1 !" write_en_dat $end
     $var wire 3 g" funct3_i [2:0] $end
     $var wire 1 &" request $end
     $var wire 1 "" write_finished $end
     $var wire 1 ^ ready $end
     $var wire 32 '" data_o [31:0] $end
     $var wire 64 G data_dat_o [63:0] $end
     $var wire 32 h" MEM_BYTES [31:0] $end
     $var wire 4 (" delay [3:0] $end
     $var wire 32 $ address [31:0] $end
     $var wire 32 Y address_dat [31:0] $end
     $var wire 32 6 i [31:0] $end
     $scope module unnamedblk1 $end
      $var wire 32 )" i [31:0] $end
     $upscope $end
     $scope module unnamedblk2 $end
      $var wire 32 *" i [31:0] $end
     $upscope $end
    $upscope $end
   $upscope $end
   $scope module wb_buffer1 $end
    $var wire 32 Y" DEPTH [31:0] $end
    $var wire 32 c" DWIDTH [31:0] $end
    $var wire 32 S" AWIDTH [31:0] $end
    $var wire 1 % reset $end
    $var wire 1 G" clk $end
    $var wire 78 M push_data [77:0] $end
    $var wire 2 L push_pop [1:0] $end
    $var wire 14 : search_addr [13:0] $end
    $var wire 4 d merge_entry [3:0] $end
    $var wire 1 g drain_rq $end
    $var wire 4 d found_entry [3:0] $end
    $var wire 64 e found_data [63:0] $end
    $var wire 1 c found $end
    $var wire 79 _ pop_data [78:0] $end
    $var wire 1 b pop_valid $end
    $var wire 1 h buffer_full $end
    $var wire 32 Z" NO_OP [31:0] $end
    $var wire 32 W" PUSH [31:0] $end
    $var wire 32 [" POP [31:0] $end
    $var wire 32 V" MERGE [31:0] $end
    $var wire 79 +" fifo_buffer[0] [78:0] $end
    $var wire 79 ." fifo_buffer[1] [78:0] $end
    $var wire 79 1" fifo_buffer[2] [78:0] $end
    $var wire 79 4" fifo_buffer[3] [78:0] $end
    $var wire 79 7" fifo_buffer[4] [78:0] $end
    $var wire 79 :" fifo_buffer[5] [78:0] $end
    $var wire 79 =" fifo_buffer[6] [78:0] $end
    $var wire 79 @" fifo_buffer[7] [78:0] $end
    $var wire 32 ^" POINTER_BITS [31:0] $end
    $var wire 4 C" head [3:0] $end
    $var wire 4 D" tail [3:0] $end
    $var wire 1 E" empty $end
    $scope module unnamedblk1 $end
     $var wire 32 b" i [31:0] $end
    $upscope $end
    $scope module unnamedblk2 $end
     $var wire 32 F" i [31:0] $end
    $upscope $end
   $upscope $end
  $upscope $end
 $upscope $end
$enddefinitions $end


#0
b00000000000000000000000000000000 #
b11111111000000000000000000000000 $
1%
b0000000001011110000011 &
b0000000000011010000011 '
b0000000010011000000011 (
b0000000001011110100011 )
b0000000000011010100011 *
b0000000010011000100011 +
b0000000011011110000011 ,
b0000000001011110100011 -
b0000000111011010000011 .
b0000001111011000000011 /
b0000000011011110100011 0
b0000000111011010100011 1
b0000001111011000100011 2
b0000000011011110000000 3
b0000000111011010000000 4
b0000001111011000000000 5
b00000000000000000000000010010011 6
b00000000000000 7
b00000000000000000000000000000000 8
b000 9
b00000000000000 :
0;
b000 <
0=
b0000000000 >
b00 ?
b00000000000000000000000000000000 @
0A
0B
b00000000000000 C
0D
b00 E
0F
b0000000000000000000000000000000000000000000000000000000000000000 G
0I
0J
0K
b00 L
b000000000000000000000000000000000000000000000000000000000000000000000000000000 M
0P
0Q
1R
1S
0T
0U
0V
b00000000000000 W
b00000000000000000000000000000000 X
b00000000000000000000000000000000 Y
b000000000000000000000000000000000000000000000000000000000000000000000000000000 Z
b00 ]
0^
b0000000000000000000000000000000000000000000000000000000000000000000000000000000 _
0b
0c
b0000 d
b0000000000000000000000000000000000000000000000000000000000000000 e
0g
0h
b00000000000000 i
0j
0k
0l
b111 m
b000 n
0o
b00000000000000000000000000000000000000000000000000000000000000000000000000000000000000000000000000000000000000000000000000000000000000000000000000000000000000000000000000000000000000000000000000000000000000000000000000000000000000000000000000000000000000000000000000000000000000000000000000000000000000000000000000000000000000000000000000000000000000000000000000000000000000000000000000000000000000000000000000000000000000000000000000000000000000000000000000000000000000000000000000000000000000000000000000000000 p
b0000000000000000000000000000000000000000000000000000000000000000000000000000000000000000000000000000000000000000000000000000000000000000000000000000000000000000000000000000000000000000000000000000000000000000000000000000000000000000000000000000000000000000000000000000000000000000000000000000000000000000000000000000000000000000000000000000000000000000000000000000000000000000000000000000000000000000000000000000000000000000000000000000000000000000000000000000000000000000000000000000000000000000000000000000000000000000000000000000000000000000000000000000000000000000000000000000000000000000000000000000000000000000000000000000000000000000000000000000000000000000000000000000000000000000000000000000000000000000000000000000000000000000000000000000000000000000000000000000000000000000000000000000000000000000000000000000000000000000000000000000000000000000000000000000000000000000000000000000000000000000000000000000000000000000000000000000000000000000000000000000000000000000000000000000000000000000000000000000000000000000 "!
b0000000000 B!
b0000000000 C!
b0000000000 D!
b0000000000 E!
b0000000000 F!
b0000000000 G!
b0000000000 H!
b0000000000 I!
b0000000000 J!
b0000000000 K!
b0000000000 L!
b0000000000 M!
b0000000000 N!
b0000000000 O!
b0000000000 P!
b0000000000 Q!
b00 R!
b00 S!
b00 T!
b00 U!
b00 V!
b00 W!
b00 X!
b00 Y!
b00 Z!
b00 [!
b00 \!
b00 ]!
b00 ^!
b00 _!
b00 `!
b00 a!
b000 b!
b000 c!
b000 d!
b000 e!
b000 f!
b000 g!
b000 h!
b000 i!
b000 j!
b000 k!
b000 l!
b000 m!
b000 n!
b000 o!
b000 p!
b000 q!
b000 r!
0s!
b0000000000 t!
b0000000000 u!
b0000000000 v!
b0000000000 w!
b111 x!
1y!
b111 z!
b00000000000000000000000000000000 {!
b00000000000000000000000000000000 |!
b00000000000000000000000000000000 }!
0~!
0!"
0""
b0000000000000000000000000000000000000000000000000000000000000000 #"
b00000000000000 %"
0&"
b00000000000000000000000000000000 '"
b0000 ("
b00000000000000000000000000000000 )"
b00000000000000000000000000000000 *"
b0000000000000000000000000000000000000000000000000000000000000000000000000000000 +"
b0000000000000000000000000000000000000000000000000000000000000000000000000000000 ."
b0000000000000000000000000000000000000000000000000000000000000000000000000000000 1"
b0000000000000000000000000000000000000000000000000000000000000000000000000000000 4"
b0000000000000000000000000000000000000000000000000000000000000000000000000000000 7"
b0000000000000000000000000000000000000000000000000000000000000000000000000000000 :"
b0000000000000000000000000000000000000000000000000000000000000000000000000000000 ="
b0000000000000000000000000000000000000000000000000000000000000000000000000000000 @"
b0000 C"
b0000 D"
1E"
b00000000000000000000000000000000 F"
0G"
b00000000000000000000000000000000 H"
b0000000 I"
b011 J"
0K"
b00000000000000000000000000000000 L"
0M"
b0000000000000000000000000000000000000000000000000000000000000000 N"
b0000000000000000000000000000000000000000000000000000000000000000 P"
b00 R"
b00000000000000000000000000001110 S"
b00000000000000000000000000100000 T"
b00000000000000000000000000000010 U"
b00000000000000000000000000000011 V"
b00000000000000000000000000000001 W"
b00000000000000000000000000001010 X"
b00000000000000000000000000001000 Y"
b00000000000000000000000000000000 Z"
b00000000000000000000000000000010 ["
b00000000000000000000000000001010 \"
b00000000000000000000000000000001 ]"
b00000000000000000000000000000011 ^"
b000 _"
b00000000000000000000000000000100 `"
b00000000000000000000000000000100 a"
b00000000000000000000000000001000 b"
b00000000000000000000000001000000 c"
0d"
0e"
b00000001000000000000000000000000 f"
b000 g"
b00000000000010011100101000000000 h"
b00000000000000000000000000000000 i"
b0110011 j"
b0010011 k"
b0000011 l"
b0100011 m"
b1100011 n"
b1100111 o"
b1101111 p"
b0110111 q"
b0010111 r"
b0000 s"
b0001 t"
b0010 u"
b0011 v"
b0100 w"
b0101 x"
b0110 y"
b0111 z"
b1000 {"
b1001 |"
b1010 }"
b1111 ~"
#1
b00000000101111 7
b00000000000000000000000000000001 8
b001 9
b00000000101000 :
1;
b111 <
1=
b0000000010 >
1A
0S
1T
b000000000010000000000000000000000000000000000000000000000000000000000000000000 Z
b00000000001000 i
1s!
1G"
b0000011 I"
1K"
#2
0G"
#3
b100 r!
0s!
b00000000000000000000000000000100 {!
1G"
#4
0G"
#5
1P
0T
1o
1G"
#6
0G"
#7
b00000000101000 C
b10 E
1J
b00000000101000 W
b00000000000000000000000000101000 X
b00000000000000000000000000101000 Y
1j
1G"
b01 R"
#8
0G"
#9
b1100101111111101111011111001000011001011111111011110111110010000 G
b01 ]
1~!
1&"
b11011110101011011011111011101111 '"
b00000000000000000000000000001000 )"
1G"
#10
0G"
#11
b0001 ("
1G"
#12
0G"
#13
b0010 ("
1G"
#14
0G"
#15
b0011 ("
1G"
#16
0G"
#17
b0100 ("
1G"
#18
0G"
#19
b0101 ("
1G"
#20
0G"
#21
b0110 ("
1G"
#22
0G"
#23
b0111 ("
1G"
#24
0G"
#25
b1000 ("
1G"
#26
0G"
#27
b1001 ("
1G"
#28
0G"
#29
b1010 ("
1G"
#30
0G"
#31
0P
1S
1U
1^
b0000 ("
1G"
b00 R"
#32
0G"
#33
b11111101111011111001000000000000 @
b00 E
b0000000000000000000000000000000000000000000000000000000000000000 G
0J
0S
1T
0U
b00 ]
0^
0j
b110 m
0o
b00000000000000000000000000000000000000000000000000000000000000000000000000000000000000000000000000000000000000000000000000000000000000000000000000000000000000000000000000000000000000000000000000000000000000000000000000000000000000000000000000000000000000000000000000000000000000000000000000000000000000000000000000000000000000000000000000000000000000000000000000000000000000000000000000000000000000000000000000000000000000000000000000000000000000001100101111111101111011111001000011001011111111011110111110010000 p
b0000000000000000000000000000000000000000000000000000000000000000000000000000000000000000000000000000000000000000000000000000000000000000000000000000000000000000000000000000000000000000000000000000000000000000000000000000000000000000000000000000000000000000000000000000000000000000000000000000000000000000000000000000000000000000000000000000000000000000000000000000000000000000000000000000000000000000000000000000000000000000000000000000000000000000000000000000000000000000000000000000000000000000000000000000000000000000000000000000000000000000000000000000000000000000000000000000000000000000000000000000000000000000000000000000000000000000000000000000000000000000000000000000000000000000000000000000000000000000000000000000000000000000000000000000000000000000000000000000000000000000000000000000000000000000000000000000000000000000000000000000000000000000000000000000000000000000000000000000000000000000000000000000000000000000000000000000000000000000000000001100101111111101111011111001000011001011111111011110111110010000 "!
b0000000010 Q!
b01 a!
b000 r!
1s!
b110 x!
b00000000000000000000000000001000 }!
0~!
0&"
b00000000000000000000000000000000 '"
b0001 ("
1G"
b11111101111011111001000000000000 L"
#34
0G"
#35
b100 r!
0s!
b0000 ("
1G"
#36
0G"
#37
b00000000000000000000000011001011 @
0A
1B
1D
0R
0T
1l
b111 n
1o
b0000000010 w!
1G"
b00000000000000000000000011001011 L"
1M"
b1100101111111101111011111001000000000000000000000000000000000000 P"
#38
0G"
#39
b00000000001101 7
b00000000000000000000000000000010 8
b00000000001000 :
b101 <
b0000000000 >
b10010000000000000000000000000000 @
1A
0B
0D
1P
1R
0l
b000 n
b00000000000000000000000000001000 |!
1G"
b10010000000000000000000000000000 L"
0M"
b0000000000000000000000000000000000000000000000000000000000000000 P"
#40
0G"
#41
b00000000000000000000000000000000 @
b00000000001000 C
b10 E
1J
b00000000001000 W
b00000000000000000000000000001000 X
b00000000000000000000000000001000 Y
1j
1G"
b01 R"
#42
0G"
#43
b1100101111111101111011111001000011001011111111011110111110010000 G
b01 ]
1~!
1&"
b11011110101011011011111011101111 '"
1G"
#44
0G"
#45
b0001 ("
1G"
#46
0G"
#47
b0010 ("
1G"
#48
0G"
#49
b0011 ("
1G"
#50
0G"
#51
b0100 ("
1G"
#52
0G"
#53
b0101 ("
1G"
#54
0G"
#55
b0110 ("
1G"
#56
0G"
#57
b0111 ("
1G"
#58
0G"
#59
b1000 ("
1G"
#60
0G"
#61
b1001 ("
1G"
#62
0G"
#63
b1010 ("
1G"
#64
0G"
#65
0P
1S
1U
1^
b0000 ("
1G"
b00 R"
#66
0G"
#67
b10010000000000000000000000000000 @
b00 E
b0000000000000000000000000000000000000000000000000000000000000000 G
0J
0S
1T
0U
b00 ]
0^
0j
b101 m
0o
b00000000000000000000000000000000000000000000000000000000000000000000000000000000000000000000000000000000000000000000000000000000000000000000000000000000000000000000000000000000000000000000000000000000000000000000000000000000000000000000000000000000000000000000000000000000000000000000000000000000000000000000000000000000000000000000000000000000000000000000000000000000000000000000000011001011111111011110111110010000110010111111110111101111100100001100101111111101111011111001000011001011111111011110111110010000 p
b0000000000000000000000000000000000000000000000000000000000000000000000000000000000000000000000000000000000000000000000000000000000000000000000000000000000000000000000000000000000000000000000000000000000000000000000000000000000000000000000000000000000000000000000000000000000000000000000000000000000000000000000000000000000000000000000000000000000000000000000000000000000000000000000000000000000000000000000000000000000000000000000000000000000000000000000000000000000000000000000000000000000000000000000000000000000000000000000000000000000000000000000000000000000000000000000000000000000000000000000000000000000000000000000000000000000000000000000000000000000000000000000000000000000000000000000000000000000000000000000000000000000000000000000000000000000000000000000000000000000000000000000000000000000000000000000000000000000000000000000000000000000000000000000000000000000000000000000000000000011001011111111011110111110010000110010111111110111101111100100001100101111111101111011111001000011001011111111011110111110010000 "!
b01 `!
b001 q!
b000 r!
1s!
b101 x!
0~!
0&"
b00000000000000000000000000000000 '"
b0001 ("
1G"
#68
0G"
#69
b10010000110010111111110111101111 @
1l
b111 n
b100 r!
0s!
b0000000000 w!
b0000 ("
1G"
b10010000110010111111110111101111 L"
1M"
b1100101111111101111011111001000000000000000000000000000000000000 P"
#70
0G"
#71
0A
1B
1D
0R
0T
1o
1G"
#72
0G"
#73
b00000001001100 7
b00000000000000000000000000000011 8
b000 9
b00000001001000 :
0;
b100 <
b0000000100 >
b00000000000000000000000000000000 @
1A
0B
0D
1P
1R
0l
b000 n
b001 j!
b001 k!
b001 l!
b001 m!
b001 n!
b001 o!
b001 p!
b000 q!
b110 z!
1G"
b00000000000000000000000000000000 L"
0M"
b0000000000000000000000000000000000000000000000000000000000000000 P"
#74
0G"
#75
b00000001001000 C
b10 E
1J
b00000001001000 W
b00000000000000000000000001001000 X
b00000000000000000000000001001000 Y
1j
1G"
b01 R"
#76
0G"
#77
b1100101111111101111011111001000011001011111111011110111110010000 G
b01 ]
1~!
1&"
b11011110101011011011111011101111 '"
1G"
#78
0G"
#79
b0001 ("
1G"
#80
0G"
#81
b0010 ("
1G"
#82
0G"
#83
b0011 ("
1G"
#84
0G"
#85
b0100 ("
1G"
#86
0G"
#87
b0101 ("
1G"
#88
0G"
#89
b0110 ("
1G"
#90
0G"
#91
b0111 ("
1G"
#92
0G"
#93
b1000 ("
1G"
#94
0G"
#95
b1001 ("
1G"
#96
0G"
#97
b1010 ("
1G"
#98
0G"
#99
0P
1S
1U
1^
b0000 ("
1G"
b00 R"
#100
0G"
#101
b00 E
b0000000000000000000000000000000000000000000000000000000000000000 G
0J
0S
1T
0U
b00 ]
0^
0j
b100 m
0o
b00000000000000000000000000000000000000000000000000000000000000000000000000000000000000000000000000000000000000000000000000000000000000000000000000000000000000000000000000000000000000000000000000000000000000000000000000000000000000000000000000000000000000000000000000000000000000000000000000000000000000000000000000000000110010111111110111101111100100001100101111111101111011111001000011001011111111011110111110010000110010111111110111101111100100001100101111111101111011111001000011001011111111011110111110010000 p
b0000000000000000000000000000000000000000000000000000000000000000000000000000000000000000000000000000000000000000000000000000000000000000000000000000000000000000000000000000000000000000000000000000000000000000000000000000000000000000000000000000000000000000000000000000000000000000000000000000000000000000000000000000000000000000000000000000000000000000000000000000000000000000000000000000000000000000000000000000000000000000000000000000000000000000000000000000000000000000000000000000000000000000000000000000000000000000000000000000000000000000000000000000000000000000000000000000000000000000000000000000000000000000000000000000000000000000000000000000000000000000000000000000000000000000000000000000000000000000000000000000000000000000000000000000000000000000000000000000000000000000000000000000000000000000000000000000000000000000110010111111110111101111100100001100101111111101111011111001000011001011111111011110111110010000110010111111110111101111100100001100101111111101111011111001000011001011111111011110111110010000 "!
b0000000100 O!
b01 _!
b010 p!
b001 q!
b000 r!
1s!
b100 x!
b111 z!
0~!
0&"
b00000000000000000000000000000000 '"
b0001 ("
1G"
#102
0G"
#103
b100 r!
0s!
b0000 ("
1G"
#104
0G"
#105
b11001011111111011110111110010000 @
0A
1B
1D
0R
0T
1l
b101 n
1o
b0000000100 u!
b0000000010 w!
1G"
b11001011111111011110111110010000 L"
1M"
b1100101111111101111011111001000000000000000000000000000000000000 P"
#106
0G"
